ofdm_final.vcd
$date
	Wed Mar 13 17:06:26 2019
$end
$version
	Icarus Verilog
$end
$timescale
	1s
$end
$scope module toptop_ofdm_tb $end
$var wire 1 ! valid_OFDM $end
$var wire 1 " sop $end
$var wire 16 # q_OFDM [15:0] $end
$var wire 16 $ i_OFDM [15:0] $end
$var reg 1 % clock $end
$var reg 1 & enable $end
$var reg 1 ' ready_in $end
$var reg 1 ( reset $end
$scope module top_inst $end
$var wire 1 % clk $end
$var wire 1 & en $end
$var wire 1 ' ready_in $end
$var wire 1 ( rst $end
$var wire 1 ) valid_qam $end
$var wire 1 * valid_pilot $end
$var wire 1 ! valid_OFDM $end
$var wire 1 " sop $end
$var wire 1 + sign_pilot $end
$var wire 16 , s2 [15:0] $end
$var wire 16 - s1 [15:0] $end
$var wire 1 . ready_out_pilots $end
$var wire 1 / ready_in3 $end
$var wire 1 0 index_pilot $end
$var wire 16 1 Q_OFDM [15:0] $end
$var wire 16 2 I_OFDM [15:0] $end
$scope module OFDM_subcarrier_mux1 $end
$var wire 1 % clk $end
$var wire 1 & en $end
$var wire 1 ' ready_in $end
$var wire 1 ( rst $end
$var wire 1 ) valid_qam $end
$var wire 1 * valid_pilot $end
$var wire 1 + sign_pilot $end
$var wire 16 3 q [15:0] $end
$var wire 1 0 index_pilot $end
$var wire 16 4 i [15:0] $end
$var reg 11 5 Left_index [10:0] $end
$var reg 11 6 Right_index [10:0] $end
$var reg 11 7 count [10:0] $end
$var reg 16 8 i_OFDM [15:0] $end
$var reg 1 9 indexCarrier $end
$var reg 11 : mid_ofdm [10:0] $end
$var reg 1 ; pilot1 $end
$var reg 1 < pilot2 $end
$var reg 1 = pilot3 $end
$var reg 16 > pilot_value [15:0] $end
$var reg 16 ? q_OFDM [15:0] $end
$var reg 1 / ready_out_ROM $end
$var reg 1 . ready_out_pilots $end
$var reg 1 " sop $end
$var reg 1 ! valid_OFDM $end
$upscope $end
$scope module pilots1 $end
$var wire 1 % clk $end
$var wire 1 & en $end
$var wire 1 . ready_in $end
$var wire 1 ( rst $end
$var reg 11 @ count_index [10:0] $end
$var reg 7 A count_value [6:0] $end
$var reg 1 0 index_pilot $end
$var reg 1 + sign_pilot $end
$var reg 1 * valid_pilot $end
$upscope $end
$scope module top_Symbol1 $end
$var wire 1 % clk $end
$var wire 1 & en $end
$var wire 1 / ready_in $end
$var wire 1 ( rst $end
$var wire 1 B valid_rom1 $end
$var wire 1 ) valid_qam $end
$var wire 16 C out_q [15:0] $end
$var wire 16 D out_i [15:0] $end
$var wire 2 E data_rom1 [1:0] $end
$scope module build_rom1 $end
$var wire 1 % clk $end
$var wire 1 & en $end
$var wire 1 / ready_in $end
$var wire 1 ( rst $end
$var wire 1 B valid_rom $end
$var wire 1 F valid_addr $end
$var wire 2 G data_rom [1:0] $end
$var wire 11 H addr [10:0] $end
$scope module ROM1 $end
$var wire 1 % clk $end
$var wire 1 & en $end
$var wire 1 ( rst $end
$var wire 1 F valid_addr $end
$var wire 11 I addr [10:0] $end
$var reg 2 J data_rom [1:0] $end
$var reg 1 B valid_rom $end
$upscope $end
$scope module counter_rom1 $end
$var wire 1 % clk $end
$var wire 1 & en $end
$var wire 1 / ready_in $end
$var wire 1 ( rst $end
$var reg 11 K addr [10:0] $end
$var reg 1 F valid_addr $end
$upscope $end
$upscope $end
$scope module qam $end
$var wire 1 % clk $end
$var wire 2 L data_rom [1:0] $end
$var wire 1 & en $end
$var wire 1 ( rst $end
$var wire 1 B valid_rom $end
$var reg 15 M A [14:0] $end
$var reg 16 N i [15:0] $end
$var reg 16 O q [15:0] $end
$var reg 1 ) valid_qam $end
$upscope $end
$upscope $end
$upscope $end
$upscope $end
$enddefinitions $end
#0
$dumpvars
b0 O
b0 N
b101101010000010 M
b0 L
b0 K
b0 J
b0 I
b0 H
b0 G
0F
b0 E
b0 D
b0 C
0B
b0 A
b0 @
b0 ?
b111111111111111 >
0=
0<
0;
b111111111 :
09
b0 8
b0 7
b1110011011 6
b1100011 5
b0 4
b0 3
b0 2
b0 1
00
0/
x.
b0 -
b0 ,
0+
0*
x)
0(
1'
1&
0%
b0 $
b0 #
0"
0!
$end
#5
1!
1"
b1 7
1.
0)
1%
#10
0%
#15
1*
b1 @
0"
b10 7
1%
#20
0%
#25
b11 7
b10 @
1%
#30
0%
#35
b11 @
b100 7
1%
#40
0%
#45
b101 7
b100 @
1%
#50
0%
#55
b101 @
b110 7
1%
#60
0%
#65
b111 7
b110 @
1%
#70
0%
#75
b111 @
b1000 7
1%
#80
0%
#85
b1001 7
b1000 @
1%
#90
0%
#95
b1001 @
b1010 7
1%
#100
0%
#105
b1011 7
b1010 @
1%
#110
0%
#115
b1011 @
b1100 7
1%
#120
0%
#125
b1101 7
b1100 @
1%
#130
0%
#135
b1101 @
b1110 7
1%
#140
0%
#145
b1111 7
b1110 @
1%
#150
0%
#155
b1111 @
b10000 7
1%
#160
0%
#165
b10001 7
b10000 @
1%
#170
0%
#175
b10001 @
b10010 7
1%
#180
0%
#185
b10011 7
b10010 @
1%
#190
0%
#195
b10011 @
b10100 7
1%
#200
0%
#205
b10101 7
b10100 @
1%
#210
0%
#215
b10101 @
b10110 7
1%
#220
0%
#225
b10111 7
b10110 @
1%
#230
0%
#235
b10111 @
b11000 7
1%
#240
0%
#245
b11001 7
b11000 @
1%
#250
0%
#255
b11001 @
b11010 7
1%
#260
0%
#265
b11011 7
b11010 @
1%
#270
0%
#275
b11011 @
b11100 7
1%
#280
0%
#285
b11101 7
b11100 @
1%
#290
0%
#295
b11101 @
b11110 7
1%
#300
0%
#305
b11111 7
b11110 @
1%
#310
0%
#315
b11111 @
b100000 7
1%
#320
0%
#325
b100001 7
b100000 @
1%
#330
0%
#335
b100001 @
b100010 7
1%
#340
0%
#345
b100011 7
b100010 @
1%
#350
0%
#355
b100011 @
b100100 7
1%
#360
0%
#365
b100101 7
b100100 @
1%
#370
0%
#375
b100101 @
b100110 7
1%
#380
0%
#385
b100111 7
b100110 @
1%
#390
0%
#395
b100111 @
b101000 7
1%
#400
0%
#405
b101001 7
b101000 @
1%
#410
0%
#415
b101001 @
b101010 7
1%
#420
0%
#425
b101011 7
b101010 @
1%
#430
0%
#435
b101011 @
b101100 7
1%
#440
0%
#445
b101101 7
b101100 @
1%
#450
0%
#455
b101101 @
b101110 7
1%
#460
0%
#465
b101111 7
b101110 @
1%
#470
0%
#475
b101111 @
b110000 7
1%
#480
0%
#485
b110001 7
b110000 @
1%
#490
0%
#495
b110001 @
b110010 7
1%
#500
0%
#505
b110011 7
b110010 @
1%
#510
0%
#515
b110011 @
b110100 7
1%
#520
0%
#525
b110101 7
b110100 @
1%
#530
0%
#535
b110101 @
b110110 7
1%
#540
0%
#545
b110111 7
b110110 @
1%
#550
0%
#555
b110111 @
b111000 7
1%
#560
0%
#565
b111001 7
b111000 @
1%
#570
0%
#575
b111001 @
b111010 7
1%
#580
0%
#585
b111011 7
b111010 @
1%
#590
0%
#595
b111011 @
b111100 7
1%
#600
0%
#605
b111101 7
b111100 @
1%
#610
0%
#615
b111101 @
b111110 7
1%
#620
0%
#625
b111111 7
b111110 @
1%
#630
0%
#635
b111111 @
b1000000 7
1%
#640
0%
#645
b1000001 7
b1000000 @
1%
#650
0%
#655
b1000001 @
b1000010 7
1%
#660
0%
#665
b1000011 7
b1000010 @
1%
#670
0%
#675
b1000011 @
b1000100 7
1%
#680
0%
#685
b1000101 7
b1000100 @
1%
#690
0%
#695
b1000101 @
b1000110 7
1%
#700
0%
#705
b1000111 7
b1000110 @
1%
#710
0%
#715
b1000111 @
b1001000 7
1%
#720
0%
#725
b1001001 7
b1001000 @
1%
#730
0%
#735
b1001001 @
b1001010 7
1%
#740
0%
#745
b1001011 7
b1001010 @
1%
#750
0%
#755
b1001011 @
b1001100 7
1%
#760
0%
#765
b1001101 7
b1001100 @
1%
#770
0%
#775
b1001101 @
b1001110 7
1%
#780
0%
#785
b1001111 7
b1001110 @
1%
#790
0%
#795
b1001111 @
b1010000 7
1%
#800
0%
#805
b1010001 7
b1010000 @
1%
#810
0%
#815
b1010001 @
b1010010 7
1%
#820
0%
#825
b1010011 7
b1010010 @
1%
#830
0%
#835
b1010011 @
b1010100 7
1%
#840
0%
#845
b1010101 7
b1010100 @
1%
#850
0%
#855
b1010101 @
b1010110 7
1%
#860
0%
#865
b1010111 7
b1010110 @
1%
#870
0%
#875
b1010111 @
b1011000 7
1%
#880
0%
#885
b1011001 7
b1011000 @
1%
#890
0%
#895
b1011001 @
b1011010 7
1%
#900
0%
#905
b1011011 7
b1011010 @
1%
#910
0%
#915
b1011011 @
b1011100 7
1%
#920
0%
#925
b1011101 7
b1011100 @
1%
#930
0%
#935
b1011101 @
b1011110 7
1%
#940
0%
#945
b1011111 7
b1011110 @
1%
#950
0%
#955
10
b1011111 @
b1100000 7
1%
#960
0%
#965
1;
b1100001 7
b1100000 @
b1 A
00
1%
#970
0%
#975
1+
b1100001 @
1/
b1100010 7
1<
0;
1%
#980
1F
0%
#985
1=
0<
b1100011 7
b1100010 @
b1 H
b1 I
b1 K
b1 E
b1 G
b1 J
b1 L
1B
1%
#990
0%
#995
b1010010101111110 ,
b1010010101111110 3
b1010010101111110 C
b1010010101111110 O
b101101010000010 -
b101101010000010 4
b101101010000010 D
b101101010000010 N
1)
b10 E
b10 G
b10 J
b10 L
b10 H
b10 I
b10 K
b1100011 @
19
b1000000000000001 $
b1000000000000001 2
b1000000000000001 8
b1100100 7
0=
1%
#1000
0%
#1005
b1100101 7
b1010010101111110 #
b1010010101111110 1
b1010010101111110 ?
b101101010000010 $
b101101010000010 2
b101101010000010 8
b1100100 @
b11 H
b11 I
b11 K
b11 E
b11 G
b11 J
b11 L
b101101010000010 ,
b101101010000010 3
b101101010000010 C
b101101010000010 O
b1010010101111110 -
b1010010101111110 4
b1010010101111110 D
b1010010101111110 N
1%
#1010
0%
#1015
b1010010101111110 ,
b1010010101111110 3
b1010010101111110 C
b1010010101111110 O
b0 E
b0 G
b0 J
b0 L
b100 H
b100 I
b100 K
b1100101 @
b101101010000010 #
b101101010000010 1
b101101010000010 ?
b1010010101111110 $
b1010010101111110 2
b1010010101111110 8
b1100110 7
1%
#1020
0%
#1025
b1100111 7
b1010010101111110 #
b1010010101111110 1
b1010010101111110 ?
b1100110 @
b101 H
b101 I
b101 K
b11 E
b11 G
b11 J
b11 L
b101101010000010 ,
b101101010000010 3
b101101010000010 C
b101101010000010 O
b101101010000010 -
b101101010000010 4
b101101010000010 D
b101101010000010 N
1%
#1030
0%
#1035
b1010010101111110 ,
b1010010101111110 3
b1010010101111110 C
b1010010101111110 O
b1010010101111110 -
b1010010101111110 4
b1010010101111110 D
b1010010101111110 N
b10 E
b10 G
b10 J
b10 L
b110 H
b110 I
b110 K
b1100111 @
b101101010000010 #
b101101010000010 1
b101101010000010 ?
b101101010000010 $
b101101010000010 2
b101101010000010 8
b1101000 7
1%
#1040
0%
#1045
b1101001 7
b1010010101111110 #
b1010010101111110 1
b1010010101111110 ?
b1010010101111110 $
b1010010101111110 2
b1010010101111110 8
b1101000 @
b111 H
b111 I
b111 K
b11 E
b11 G
b11 J
b11 L
b101101010000010 ,
b101101010000010 3
b101101010000010 C
b101101010000010 O
1%
#1050
0%
#1055
b1010010101111110 ,
b1010010101111110 3
b1010010101111110 C
b1010010101111110 O
b1000 H
b1000 I
b1000 K
b1101001 @
b101101010000010 #
b101101010000010 1
b101101010000010 ?
b1101010 7
1%
#1060
0%
#1065
b1101011 7
b1010010101111110 #
b1010010101111110 1
b1010010101111110 ?
b1101010 @
b1001 H
b1001 I
b1001 K
b1 E
b1 G
b1 J
b1 L
1%
#1070
0%
#1075
b101101010000010 -
b101101010000010 4
b101101010000010 D
b101101010000010 N
b1010 H
b1010 I
b1010 K
b1101011 @
b1101100 7
1%
#1080
0%
#1085
b1101101 7
b101101010000010 $
b101101010000010 2
b101101010000010 8
b1101100 @
b1011 H
b1011 I
b1011 K
b11 E
b11 G
b11 J
b11 L
1%
#1090
0%
#1095
b1010010101111110 -
b1010010101111110 4
b1010010101111110 D
b1010010101111110 N
b0 E
b0 G
b0 J
b0 L
b1100 H
b1100 I
b1100 K
b1101101 @
b1101110 7
1%
#1100
0%
#1105
b1101111 7
b1010010101111110 $
b1010010101111110 2
b1010010101111110 8
b1101110 @
b1101 H
b1101 I
b1101 K
b1 E
b1 G
b1 J
b1 L
b101101010000010 ,
b101101010000010 3
b101101010000010 C
b101101010000010 O
b101101010000010 -
b101101010000010 4
b101101010000010 D
b101101010000010 N
1%
#1110
0%
#1115
b1010010101111110 ,
b1010010101111110 3
b1010010101111110 C
b1010010101111110 O
b11 E
b11 G
b11 J
b11 L
b1110 H
b1110 I
b1110 K
b1101111 @
b101101010000010 #
b101101010000010 1
b101101010000010 ?
b101101010000010 $
b101101010000010 2
b101101010000010 8
b1110000 7
1%
#1120
0%
#1125
b1110001 7
b1010010101111110 #
b1010010101111110 1
b1010010101111110 ?
b1110000 @
b1111 H
b1111 I
b1111 K
b0 E
b0 G
b0 J
b0 L
b1010010101111110 -
b1010010101111110 4
b1010010101111110 D
b1010010101111110 N
1%
#1130
0%
#1135
b101101010000010 ,
b101101010000010 3
b101101010000010 C
b101101010000010 O
b101101010000010 -
b101101010000010 4
b101101010000010 D
b101101010000010 N
b11 E
b11 G
b11 J
b11 L
b10000 H
b10000 I
b10000 K
b1110001 @
b1010010101111110 $
b1010010101111110 2
b1010010101111110 8
b1110010 7
1%
#1140
0%
#1145
b1110011 7
b101101010000010 #
b101101010000010 1
b101101010000010 ?
b101101010000010 $
b101101010000010 2
b101101010000010 8
b1110010 @
b10001 H
b10001 I
b10001 K
b0 E
b0 G
b0 J
b0 L
b1010010101111110 ,
b1010010101111110 3
b1010010101111110 C
b1010010101111110 O
b1010010101111110 -
b1010010101111110 4
b1010010101111110 D
b1010010101111110 N
1%
#1150
0%
#1155
b101101010000010 ,
b101101010000010 3
b101101010000010 C
b101101010000010 O
b101101010000010 -
b101101010000010 4
b101101010000010 D
b101101010000010 N
b10010 H
b10010 I
b10010 K
b1110011 @
b1010010101111110 #
b1010010101111110 1
b1010010101111110 ?
b1010010101111110 $
b1010010101111110 2
b1010010101111110 8
b1110100 7
1%
#1160
0%
#1165
b1110101 7
b101101010000010 #
b101101010000010 1
b101101010000010 ?
b101101010000010 $
b101101010000010 2
b101101010000010 8
b1110100 @
b10011 H
b10011 I
b10011 K
b10 E
b10 G
b10 J
b10 L
1%
#1170
0%
#1175
b1010010101111110 -
b1010010101111110 4
b1010010101111110 D
b1010010101111110 N
b10100 H
b10100 I
b10100 K
b1110101 @
b1110110 7
1%
#1180
0%
#1185
b1110111 7
b1010010101111110 $
b1010010101111110 2
b1010010101111110 8
b1110110 @
b10101 H
b10101 I
b10101 K
1%
#1190
0%
#1195
b11 E
b11 G
b11 J
b11 L
b10110 H
b10110 I
b10110 K
b1110111 @
b1111000 7
1%
#1200
0%
#1205
b1111001 7
b1111000 @
b10111 H
b10111 I
b10111 K
b1010010101111110 ,
b1010010101111110 3
b1010010101111110 C
b1010010101111110 O
1%
#1210
0%
#1215
b10 E
b10 G
b10 J
b10 L
b11000 H
b11000 I
b11000 K
b1111001 @
b1010010101111110 #
b1010010101111110 1
b1010010101111110 ?
b1111010 7
1%
#1220
0%
#1225
b1111011 7
b1111010 @
b11001 H
b11001 I
b11001 K
b1 E
b1 G
b1 J
b1 L
b101101010000010 ,
b101101010000010 3
b101101010000010 C
b101101010000010 O
1%
#1230
0%
#1235
b1010010101111110 ,
b1010010101111110 3
b1010010101111110 C
b1010010101111110 O
b101101010000010 -
b101101010000010 4
b101101010000010 D
b101101010000010 N
b10 E
b10 G
b10 J
b10 L
b11010 H
b11010 I
b11010 K
b1111011 @
b101101010000010 #
b101101010000010 1
b101101010000010 ?
b1111100 7
1%
#1240
0%
#1245
b1111101 7
b1010010101111110 #
b1010010101111110 1
b1010010101111110 ?
b101101010000010 $
b101101010000010 2
b101101010000010 8
b1111100 @
b11011 H
b11011 I
b11011 K
b11 E
b11 G
b11 J
b11 L
b101101010000010 ,
b101101010000010 3
b101101010000010 C
b101101010000010 O
b1010010101111110 -
b1010010101111110 4
b1010010101111110 D
b1010010101111110 N
1%
#1250
0%
#1255
b1010010101111110 ,
b1010010101111110 3
b1010010101111110 C
b1010010101111110 O
b11100 H
b11100 I
b11100 K
b1111101 @
b101101010000010 #
b101101010000010 1
b101101010000010 ?
b1010010101111110 $
b1010010101111110 2
b1010010101111110 8
b1111110 7
1%
#1260
0%
#1265
b1111111 7
b1010010101111110 #
b1010010101111110 1
b1010010101111110 ?
b1111110 @
b11101 H
b11101 I
b11101 K
1%
#1270
0%
#1275
b0 E
b0 G
b0 J
b0 L
b11110 H
b11110 I
b11110 K
b1111111 @
b10000000 7
1%
#1280
0%
#1285
b10000001 7
b10000000 @
b11111 H
b11111 I
b11111 K
b1 E
b1 G
b1 J
b1 L
b101101010000010 ,
b101101010000010 3
b101101010000010 C
b101101010000010 O
b101101010000010 -
b101101010000010 4
b101101010000010 D
b101101010000010 N
1%
#1290
0%
#1295
b1010010101111110 ,
b1010010101111110 3
b1010010101111110 C
b1010010101111110 O
b100000 H
b100000 I
b100000 K
b10000001 @
b101101010000010 #
b101101010000010 1
b101101010000010 ?
b101101010000010 $
b101101010000010 2
b101101010000010 8
b10000010 7
1%
#1300
0%
#1305
b10000011 7
b1010010101111110 #
b1010010101111110 1
b1010010101111110 ?
b10000010 @
b100001 H
b100001 I
b100001 K
1%
#1310
0%
#1315
b0 E
b0 G
b0 J
b0 L
b100010 H
b100010 I
b100010 K
b10000011 @
b10000100 7
1%
#1320
0%
#1325
b10000101 7
b10000100 @
b100011 H
b100011 I
b100011 K
b11 E
b11 G
b11 J
b11 L
b101101010000010 ,
b101101010000010 3
b101101010000010 C
b101101010000010 O
1%
#1330
0%
#1335
b1010010101111110 ,
b1010010101111110 3
b1010010101111110 C
b1010010101111110 O
b1010010101111110 -
b1010010101111110 4
b1010010101111110 D
b1010010101111110 N
b100100 H
b100100 I
b100100 K
b10000101 @
b101101010000010 #
b101101010000010 1
b101101010000010 ?
b10000110 7
1%
#1340
0%
#1345
b10000111 7
b1010010101111110 #
b1010010101111110 1
b1010010101111110 ?
b1010010101111110 $
b1010010101111110 2
b1010010101111110 8
b10000110 @
b100101 H
b100101 I
b100101 K
1%
#1350
0%
#1355
b100110 H
b100110 I
b100110 K
b10000111 @
b10001000 7
1%
#1360
0%
#1365
b10001001 7
b10001000 @
b100111 H
b100111 I
b100111 K
b1 E
b1 G
b1 J
b1 L
1%
#1370
0%
#1375
b101101010000010 -
b101101010000010 4
b101101010000010 D
b101101010000010 N
b11 E
b11 G
b11 J
b11 L
b101000 H
b101000 I
b101000 K
b10001001 @
b10001010 7
1%
#1380
0%
#1385
b10001011 7
b101101010000010 $
b101101010000010 2
b101101010000010 8
b10001010 @
b101001 H
b101001 I
b101001 K
b1 E
b1 G
b1 J
b1 L
b1010010101111110 -
b1010010101111110 4
b1010010101111110 D
b1010010101111110 N
1%
#1390
0%
#1395
b101101010000010 -
b101101010000010 4
b101101010000010 D
b101101010000010 N
b101010 H
b101010 I
b101010 K
b10001011 @
b1010010101111110 $
b1010010101111110 2
b1010010101111110 8
b10001100 7
1%
#1400
0%
#1405
b10001101 7
b101101010000010 $
b101101010000010 2
b101101010000010 8
b10001100 @
b101011 H
b101011 I
b101011 K
b0 E
b0 G
b0 J
b0 L
1%
#1410
0%
#1415
b101101010000010 ,
b101101010000010 3
b101101010000010 C
b101101010000010 O
b11 E
b11 G
b11 J
b11 L
b101100 H
b101100 I
b101100 K
b10001101 @
b10001110 7
1%
#1420
0%
#1425
b10001111 7
b101101010000010 #
b101101010000010 1
b101101010000010 ?
b10001110 @
b101101 H
b101101 I
b101101 K
b1010010101111110 ,
b1010010101111110 3
b1010010101111110 C
b1010010101111110 O
b1010010101111110 -
b1010010101111110 4
b1010010101111110 D
b1010010101111110 N
1%
#1430
0%
#1435
b0 E
b0 G
b0 J
b0 L
b101110 H
b101110 I
b101110 K
b10001111 @
b1010010101111110 #
b1010010101111110 1
b1010010101111110 ?
b1010010101111110 $
b1010010101111110 2
b1010010101111110 8
b10010000 7
1%
#1440
0%
#1445
b10010001 7
b10010000 @
b101111 H
b101111 I
b101111 K
b101101010000010 ,
b101101010000010 3
b101101010000010 C
b101101010000010 O
b101101010000010 -
b101101010000010 4
b101101010000010 D
b101101010000010 N
1%
#1450
0%
#1455
b11 E
b11 G
b11 J
b11 L
b110000 H
b110000 I
b110000 K
10
b10010001 @
b101101010000010 #
b101101010000010 1
b101101010000010 ?
b101101010000010 $
b101101010000010 2
b101101010000010 8
b10010010 7
1%
#1460
0%
#1465
1;
b10010011 7
0/
b10010010 @
b10 A
00
b110001 H
b110001 I
b110001 K
b1010010101111110 ,
b1010010101111110 3
b1010010101111110 C
b1010010101111110 O
b1010010101111110 -
b1010010101111110 4
b1010010101111110 D
b1010010101111110 N
1%
#1470
0F
0%
#1475
0B
b10010011 @
1/
b1010010101111110 #
b1010010101111110 1
b1010010101111110 ?
b1010010101111110 $
b1010010101111110 2
b1010010101111110 8
b10010100 7
1<
0;
1%
#1480
1F
0%
#1485
1=
0<
b10010101 7
b10010100 @
b110010 H
b110010 I
b110010 K
b1 E
b1 G
b1 J
b1 L
1B
0)
1%
#1490
0%
#1495
b101101010000010 -
b101101010000010 4
b101101010000010 D
b101101010000010 N
1)
b10 E
b10 G
b10 J
b10 L
b110011 H
b110011 I
b110011 K
b10010101 @
b0 #
b0 1
b0 ?
b1000000000000001 $
b1000000000000001 2
b1000000000000001 8
b10010110 7
0=
1%
#1500
0%
#1505
b10010111 7
b1010010101111110 #
b1010010101111110 1
b1010010101111110 ?
b101101010000010 $
b101101010000010 2
b101101010000010 8
b10010110 @
b110100 H
b110100 I
b110100 K
b0 E
b0 G
b0 J
b0 L
b101101010000010 ,
b101101010000010 3
b101101010000010 C
b101101010000010 O
b1010010101111110 -
b1010010101111110 4
b1010010101111110 D
b1010010101111110 N
1%
#1510
0%
#1515
b101101010000010 -
b101101010000010 4
b101101010000010 D
b101101010000010 N
b1 E
b1 G
b1 J
b1 L
b110101 H
b110101 I
b110101 K
b10010111 @
b101101010000010 #
b101101010000010 1
b101101010000010 ?
b1010010101111110 $
b1010010101111110 2
b1010010101111110 8
b10011000 7
1%
#1520
0%
#1525
b10011001 7
b101101010000010 $
b101101010000010 2
b101101010000010 8
b10011000 @
b110110 H
b110110 I
b110110 K
b1010010101111110 ,
b1010010101111110 3
b1010010101111110 C
b1010010101111110 O
1%
#1530
0%
#1535
b10 E
b10 G
b10 J
b10 L
b110111 H
b110111 I
b110111 K
b10011001 @
b1010010101111110 #
b1010010101111110 1
b1010010101111110 ?
b10011010 7
1%
#1540
0%
#1545
b10011011 7
b10011010 @
b111000 H
b111000 I
b111000 K
b11 E
b11 G
b11 J
b11 L
b101101010000010 ,
b101101010000010 3
b101101010000010 C
b101101010000010 O
b1010010101111110 -
b1010010101111110 4
b1010010101111110 D
b1010010101111110 N
1%
#1550
0%
#1555
b1010010101111110 ,
b1010010101111110 3
b1010010101111110 C
b1010010101111110 O
b0 E
b0 G
b0 J
b0 L
b111001 H
b111001 I
b111001 K
b10011011 @
b101101010000010 #
b101101010000010 1
b101101010000010 ?
b1010010101111110 $
b1010010101111110 2
b1010010101111110 8
b10011100 7
1%
#1560
0%
#1565
b10011101 7
b1010010101111110 #
b1010010101111110 1
b1010010101111110 ?
b10011100 @
b111010 H
b111010 I
b111010 K
b101101010000010 ,
b101101010000010 3
b101101010000010 C
b101101010000010 O
b101101010000010 -
b101101010000010 4
b101101010000010 D
b101101010000010 N
1%
#1570
0%
#1575
b1 E
b1 G
b1 J
b1 L
b111011 H
b111011 I
b111011 K
b10011101 @
b101101010000010 #
b101101010000010 1
b101101010000010 ?
b101101010000010 $
b101101010000010 2
b101101010000010 8
b10011110 7
1%
#1580
0%
#1585
b10011111 7
b10011110 @
b111100 H
b111100 I
b111100 K
b1010010101111110 ,
b1010010101111110 3
b1010010101111110 C
b1010010101111110 O
1%
#1590
0%
#1595
b11 E
b11 G
b11 J
b11 L
b111101 H
b111101 I
b111101 K
b10011111 @
b1010010101111110 #
b1010010101111110 1
b1010010101111110 ?
b10100000 7
1%
#1600
0%
#1605
b10100001 7
b10100000 @
b111110 H
b111110 I
b111110 K
b10 E
b10 G
b10 J
b10 L
b1010010101111110 -
b1010010101111110 4
b1010010101111110 D
b1010010101111110 N
1%
#1610
0%
#1615
b101101010000010 ,
b101101010000010 3
b101101010000010 C
b101101010000010 O
b11 E
b11 G
b11 J
b11 L
b111111 H
b111111 I
b111111 K
b10100001 @
b1010010101111110 $
b1010010101111110 2
b1010010101111110 8
b10100010 7
1%
#1620
0%
#1625
b10100011 7
b101101010000010 #
b101101010000010 1
b101101010000010 ?
b10100010 @
b1000000 H
b1000000 I
b1000000 K
b10 E
b10 G
b10 J
b10 L
b1010010101111110 ,
b1010010101111110 3
b1010010101111110 C
b1010010101111110 O
1%
#1630
0%
#1635
b101101010000010 ,
b101101010000010 3
b101101010000010 C
b101101010000010 O
b1000001 H
b1000001 I
b1000001 K
b10100011 @
b1010010101111110 #
b1010010101111110 1
b1010010101111110 ?
b10100100 7
1%
#1640
0%
#1645
b10100101 7
b101101010000010 #
b101101010000010 1
b101101010000010 ?
b10100100 @
b1000010 H
b1000010 I
b1000010 K
b0 E
b0 G
b0 J
b0 L
1%
#1650
0%
#1655
b101101010000010 -
b101101010000010 4
b101101010000010 D
b101101010000010 N
b1 E
b1 G
b1 J
b1 L
b1000011 H
b1000011 I
b1000011 K
b10100101 @
b10100110 7
1%
#1660
0%
#1665
b10100111 7
b101101010000010 $
b101101010000010 2
b101101010000010 8
b10100110 @
b1000100 H
b1000100 I
b1000100 K
b0 E
b0 G
b0 J
b0 L
b1010010101111110 ,
b1010010101111110 3
b1010010101111110 C
b1010010101111110 O
1%
#1670
0%
#1675
b101101010000010 ,
b101101010000010 3
b101101010000010 C
b101101010000010 O
b10 E
b10 G
b10 J
b10 L
b1000101 H
b1000101 I
b1000101 K
b10100111 @
b1010010101111110 #
b1010010101111110 1
b1010010101111110 ?
b10101000 7
1%
#1680
0%
#1685
b10101001 7
b101101010000010 #
b101101010000010 1
b101101010000010 ?
b10101000 @
b1000110 H
b1000110 I
b1000110 K
b11 E
b11 G
b11 J
b11 L
b1010010101111110 -
b1010010101111110 4
b1010010101111110 D
b1010010101111110 N
1%
#1690
0%
#1695
b1010010101111110 ,
b1010010101111110 3
b1010010101111110 C
b1010010101111110 O
b0 E
b0 G
b0 J
b0 L
b1000111 H
b1000111 I
b1000111 K
b10101001 @
b1010010101111110 $
b1010010101111110 2
b1010010101111110 8
b10101010 7
1%
#1700
0%
#1705
b10101011 7
b1010010101111110 #
b1010010101111110 1
b1010010101111110 ?
b10101010 @
b1001000 H
b1001000 I
b1001000 K
b10 E
b10 G
b10 J
b10 L
b101101010000010 ,
b101101010000010 3
b101101010000010 C
b101101010000010 O
b101101010000010 -
b101101010000010 4
b101101010000010 D
b101101010000010 N
1%
#1710
0%
#1715
b1010010101111110 -
b1010010101111110 4
b1010010101111110 D
b1010010101111110 N
b11 E
b11 G
b11 J
b11 L
b1001001 H
b1001001 I
b1001001 K
b10101011 @
b101101010000010 #
b101101010000010 1
b101101010000010 ?
b101101010000010 $
b101101010000010 2
b101101010000010 8
b10101100 7
1%
#1720
0%
#1725
b10101101 7
b1010010101111110 $
b1010010101111110 2
b1010010101111110 8
b10101100 @
b1001010 H
b1001010 I
b1001010 K
b10 E
b10 G
b10 J
b10 L
b1010010101111110 ,
b1010010101111110 3
b1010010101111110 C
b1010010101111110 O
1%
#1730
0%
#1735
b101101010000010 ,
b101101010000010 3
b101101010000010 C
b101101010000010 O
b1 E
b1 G
b1 J
b1 L
b1001011 H
b1001011 I
b1001011 K
b10101101 @
b1010010101111110 #
b1010010101111110 1
b1010010101111110 ?
b10101110 7
1%
#1740
0%
#1745
b10101111 7
b101101010000010 #
b101101010000010 1
b101101010000010 ?
b10101110 @
b1001100 H
b1001100 I
b1001100 K
b10 E
b10 G
b10 J
b10 L
b1010010101111110 ,
b1010010101111110 3
b1010010101111110 C
b1010010101111110 O
b101101010000010 -
b101101010000010 4
b101101010000010 D
b101101010000010 N
1%
#1750
0%
#1755
b101101010000010 ,
b101101010000010 3
b101101010000010 C
b101101010000010 O
b1010010101111110 -
b1010010101111110 4
b1010010101111110 D
b1010010101111110 N
b1 E
b1 G
b1 J
b1 L
b1001101 H
b1001101 I
b1001101 K
b10101111 @
b1010010101111110 #
b1010010101111110 1
b1010010101111110 ?
b101101010000010 $
b101101010000010 2
b101101010000010 8
b10110000 7
1%
#1760
0%
#1765
b10110001 7
b101101010000010 #
b101101010000010 1
b101101010000010 ?
b1010010101111110 $
b1010010101111110 2
b1010010101111110 8
b10110000 @
b1001110 H
b1001110 I
b1001110 K
b11 E
b11 G
b11 J
b11 L
b1010010101111110 ,
b1010010101111110 3
b1010010101111110 C
b1010010101111110 O
b101101010000010 -
b101101010000010 4
b101101010000010 D
b101101010000010 N
1%
#1770
0%
#1775
b1010010101111110 -
b1010010101111110 4
b1010010101111110 D
b1010010101111110 N
b10 E
b10 G
b10 J
b10 L
b1001111 H
b1001111 I
b1001111 K
b10110001 @
b1010010101111110 #
b1010010101111110 1
b1010010101111110 ?
b101101010000010 $
b101101010000010 2
b101101010000010 8
b10110010 7
1%
#1780
0%
