top_frame.vcd
$date
	Tue Jan 15 14:48:26 2019
$end
$version
	Icarus Verilog
$end
$timescale
	1s
$end
$scope module top_frame_tb $end
$var wire 1 ! sop $end
$var wire 16 " Q [15:0] $end
$var wire 16 # I [15:0] $end
$var reg 1 $ clock $end
$var reg 1 % enable $end
$var reg 1 & mod_switch $end
$var reg 1 ' ready_in $end
$var reg 1 ( reset $end
$var integer 32 ) i [31:0] $end
$var integer 32 * outfile [31:0] $end
$scope module top_inst $end
$var wire 1 $ clock $end
$var wire 1 % enable $end
$var wire 1 & mod_switch $end
$var wire 1 ' ready_in $end
$var wire 1 ( reset $end
$var wire 1 ! sop $end
$var wire 1 + sop_preamb $end
$var wire 1 , sop_ofdm $end
$var wire 1 - ready_in1 $end
$var wire 1 . control $end
$var wire 16 / Q_P [15:0] $end
$var wire 16 0 Q_O [15:0] $end
$var wire 16 1 I_P [15:0] $end
$var wire 16 2 I_O [15:0] $end
$var reg 16 3 I [15:0] $end
$var reg 16 4 Q [15:0] $end
$scope module counter_frame1 $end
$var wire 1 $ clock $end
$var wire 1 % enable $end
$var wire 1 ' ready_in $end
$var wire 1 ( reset $end
$var reg 1 . control_signal $end
$var reg 12 5 count_frame [11:0] $end
$var reg 1 - ready_out $end
$upscope $end
$scope module toptop_OFDM1 $end
$var wire 1 $ clock $end
$var wire 1 6 control $end
$var wire 1 % enable $end
$var wire 1 & mod_switch $end
$var wire 16 7 out_i [15:0] $end
$var wire 16 8 out_q [15:0] $end
$var wire 1 - ready_in $end
$var wire 1 9 ready_in1 $end
$var wire 1 ( reset $end
$var wire 1 : valid_rom $end
$var wire 1 ; valid_qam $end
$var wire 1 < valid_pilot $end
$var wire 1 , sop $end
$var wire 1 = sign_pilot $end
$var wire 16 > s2 [15:0] $end
$var wire 16 ? s1 [15:0] $end
$var wire 1 @ ready_out_pilots $end
$var wire 1 A ready_in4 $end
$var wire 1 B ready_in3 $end
$var wire 1 C ready_in2 $end
$var wire 1 D index_pilot $end
$var wire 11 E count_index [10:0] $end
$var wire 16 F Q_OFDM [15:0] $end
$var wire 16 G I_OFDM [15:0] $end
$var wire 4 H Bit_wire [3:0] $end
$scope module OFDM_subcarrier_mux1 $end
$var wire 1 $ clk $end
$var wire 1 6 control $end
$var wire 1 % en $end
$var wire 1 - ready_in $end
$var wire 1 ( res $end
$var wire 1 ; valid_qam $end
$var wire 1 < valid_pilot $end
$var wire 1 = sign_pilot $end
$var wire 16 I q [15:0] $end
$var wire 1 D index_pilot $end
$var wire 16 J i [15:0] $end
$var reg 11 K Left_index [10:0] $end
$var reg 11 L Right_index [10:0] $end
$var reg 11 M count [10:0] $end
$var reg 16 N i_OFDM [15:0] $end
$var reg 1 O indexCarrier $end
$var reg 11 P mid_ofdm [10:0] $end
$var reg 1 Q pilot1 $end
$var reg 1 R pilot2 $end
$var reg 1 S pilot3 $end
$var reg 16 T pilot_value [15:0] $end
$var reg 16 U q_OFDM [15:0] $end
$var reg 1 A ready_out_QAM $end
$var reg 1 B ready_out_ROM $end
$var reg 1 @ ready_out_pilots $end
$var reg 1 , sop $end
$var reg 1 V valid_OFDM $end
$upscope $end
$scope module build_rom_OFDM1 $end
$var wire 1 $ clock $end
$var wire 1 % enable $end
$var wire 1 & mod_switch $end
$var wire 1 9 ready_in $end
$var wire 1 ( reset $end
$var wire 1 , sop $end
$var wire 1 : valid_rom $end
$var wire 1 W valid_count $end
$var wire 1 X ready $end
$var wire 12 Y addr1 [11:0] $end
$var wire 4 Z Bit_ROM [3:0] $end
$scope module ROM2 $end
$var wire 1 $ clk $end
$var wire 1 % en $end
$var wire 1 & mod_switch $end
$var wire 1 9 ready_in $end
$var wire 1 X ready_out $end
$var wire 1 ( reset $end
$var wire 1 W valid_count $end
$var wire 12 [ addr [11:0] $end
$var reg 4 \ idata [3:0] $end
$var reg 1 ] switch $end
$var reg 1 : valid_rom $end
$upscope $end
$scope module counter_rom1 $end
$var wire 1 $ clk $end
$var wire 1 % en $end
$var wire 1 & mod_switch $end
$var wire 1 X ready_in $end
$var wire 1 ( reset $end
$var wire 1 , sop $end
$var reg 12 ^ addr [11:0] $end
$var reg 1 _ switch $end
$var reg 1 W valid_count $end
$upscope $end
$upscope $end
$scope module pilots2 $end
$var wire 1 $ clk $end
$var wire 11 ` count_index [10:0] $end
$var wire 1 % en $end
$var wire 1 @ ready_in $end
$var wire 1 ( res $end
$var reg 7 a count_value [6:0] $end
$var reg 1 D index_pilot $end
$var reg 1 = sign_pilot $end
$var reg 1 < valid_pilot $end
$upscope $end
$scope module qam2 $end
$var wire 1 $ clk $end
$var wire 1 % en $end
$var wire 4 b idata [3:0] $end
$var wire 1 A ready_in $end
$var wire 1 ( res $end
$var wire 1 : valid_rom $end
$var reg 1 c error $end
$var reg 15 d grid [14:0] $end
$var reg 15 e grid_value1 [14:0] $end
$var reg 15 f grid_value2 [14:0] $end
$var reg 16 g i [15:0] $end
$var reg 16 h q [15:0] $end
$var reg 1 C ready_out $end
$var reg 1 ; valid_qam $end
$upscope $end
$upscope $end
$scope module toptop_preambule1 $end
$var wire 1 $ clock $end
$var wire 1 . control $end
$var wire 1 % enable $end
$var wire 1 & mod_switch $end
$var wire 16 i out_i [15:0] $end
$var wire 16 j out_q [15:0] $end
$var wire 1 - ready_in $end
$var wire 1 k ready_in1 $end
$var wire 1 ( reset $end
$var wire 1 l valid_rom $end
$var wire 1 m valid_qam $end
$var wire 1 n valid_pilot $end
$var wire 1 + sop $end
$var wire 1 o sign_pilot $end
$var wire 16 p s2 [15:0] $end
$var wire 16 q s1 [15:0] $end
$var wire 1 r ready_out_pilots $end
$var wire 1 s ready_in4 $end
$var wire 1 t ready_in3 $end
$var wire 1 u ready_in2 $end
$var wire 1 v index_pilot $end
$var wire 11 w count_index [10:0] $end
$var wire 16 x Q_preamb [15:0] $end
$var wire 16 y I_preamb [15:0] $end
$var wire 4 z Bit_wire [3:0] $end
$scope module OFDM_preambule1 $end
$var wire 1 $ clk $end
$var wire 1 . control $end
$var wire 1 % en $end
$var wire 1 - ready_in $end
$var wire 1 ( res $end
$var wire 1 m valid_qam $end
$var wire 1 n valid_pilot $end
$var wire 1 o sign_pilot $end
$var wire 16 { q [15:0] $end
$var wire 1 v index_pilot $end
$var wire 16 | i [15:0] $end
$var reg 11 } Left_index [10:0] $end
$var reg 11 ~ Right_index [10:0] $end
$var reg 11 !" count [10:0] $end
$var reg 16 "" i_preambule [15:0] $end
$var reg 1 #" indexCarrier $end
$var reg 11 $" mid_ofdm [10:0] $end
$var reg 1 %" pilot1 $end
$var reg 1 &" pilot2 $end
$var reg 1 '" pilot3 $end
$var reg 16 (" pilot_value [15:0] $end
$var reg 16 )" q_preambule [15:0] $end
$var reg 1 s ready_out_QAM $end
$var reg 1 t ready_out_ROM $end
$var reg 1 r ready_out_pilots $end
$var reg 1 + sop $end
$var reg 1 *" valid_OFDM $end
$upscope $end
$scope module build_rom1 $end
$var wire 1 $ clock $end
$var wire 1 % enable $end
$var wire 1 & mod_switch $end
$var wire 1 k ready_in $end
$var wire 1 ( reset $end
$var wire 1 + sop $end
$var wire 1 l valid_rom $end
$var wire 1 +" valid_count $end
$var wire 1 ," ready $end
$var wire 11 -" addr1 [10:0] $end
$var wire 4 ." Bit_ROM [3:0] $end
$scope module ROM1 $end
$var wire 1 $ clk $end
$var wire 1 % en $end
$var wire 1 & mod_switch $end
$var wire 1 k ready_in $end
$var wire 1 ," ready_out $end
$var wire 1 ( reset $end
$var wire 1 +" valid_count $end
$var wire 11 /" addr [10:0] $end
$var reg 4 0" idata [3:0] $end
$var reg 1 1" switch $end
$var reg 1 l valid_rom $end
$upscope $end
$scope module counter_rom_preambule1 $end
$var wire 1 $ clk $end
$var wire 1 % en $end
$var wire 1 & mod_switch $end
$var wire 1 ," ready_in $end
$var wire 1 ( reset $end
$var wire 1 + sop $end
$var reg 11 2" addr [10:0] $end
$var reg 1 3" switch $end
$var reg 1 +" valid_count $end
$upscope $end
$upscope $end
$scope module pilots1 $end
$var wire 1 $ clk $end
$var wire 11 4" count_index [10:0] $end
$var wire 1 % en $end
$var wire 1 r ready_in $end
$var wire 1 ( res $end
$var reg 7 5" count_value [6:0] $end
$var reg 1 v index_pilot $end
$var reg 1 o sign_pilot $end
$var reg 1 n valid_pilot $end
$upscope $end
$scope module qam1 $end
$var wire 1 $ clk $end
$var wire 1 % en $end
$var wire 4 6" idata [3:0] $end
$var wire 1 s ready_in $end
$var wire 1 ( res $end
$var wire 1 l valid_rom $end
$var reg 1 7" error $end
$var reg 15 8" grid [14:0] $end
$var reg 15 9" grid_value1 [14:0] $end
$var reg 15 :" grid_value2 [14:0] $end
$var reg 16 ;" i [15:0] $end
$var reg 16 <" q [15:0] $end
$var reg 1 u ready_out $end
$var reg 1 m valid_qam $end
$upscope $end
$upscope $end
$upscope $end
$upscope $end
$enddefinitions $end
#0
$dumpvars
b0 <"
b0 ;"
b101111111111101 :"
b1111111111111 9"
b1111111111111 8"
07"
b0 6"
b0 5"
b0 4"
03"
b0 2"
01"
b0 0"
b0 /"
b0 ."
b0 -"
0,"
0+"
0*"
b0 )"
b111111111111111 ("
x'"
x&"
x%"
b111111111 $"
0#"
b0 ""
b0 !"
b1110011011 ~
b1100011 }
b0 |
b0 {
b0 z
b0 y
b0 x
b0 w
xv
xu
0t
0s
xr
b0 q
b0 p
xo
xn
xm
0l
0k
b0 j
b0 i
b0 h
b0 g
b101111111111101 f
b1111111111111 e
b1111111111111 d
0c
b0 b
b0 a
b0 `
0_
b0 ^
0]
b0 \
b0 [
b0 Z
b0 Y
0X
0W
0V
b0 U
b111111111111111 T
xS
xR
xQ
b111111111 P
0O
b0 N
b0 M
b1110011011 L
b1100011 K
b0 J
b0 I
b0 H
b0 G
b0 F
b0 E
xD
xC
0B
0A
x@
b0 ?
b0 >
x=
x<
x;
0:
09
b0 8
b0 7
x6
bx 5
bx 4
bx 3
b0 2
b0 1
b0 0
b0 /
x.
x-
0,
0+
b10 *
b0 )
0(
0'
1&
0%
0$
bx #
bx "
0!
$end
#5
0;
1C
0<
0m
1u
0n
0-
b0 "
b0 4
b0 #
b0 3
1$
#10
0$
#12
b1 )
#15
1$
#20
0$
#22
b10 )
#25
1$
#30
0$
#32
b11 )
#35
1$
#40
0$
#42
b100 )
#45
1$
#50
0$
1%
#52
b101 )
#55
1$
#60
06
0C
0R
0Q
0@
0=
0D
0u
0&"
0%"
0r
0o
0v
1.
b0 5
1_
1]
13"
11"
0$
1(
#62
b110 )
#65
1.
1$
#70
0$
0(
#72
b111 )
#75
1C
0S
1u
0'"
1$
#80
0$
#82
b1000 )
#85
1$
#90
0$
#92
b1001 )
#95
1$
#100
0$
#102
b1010 )
#105
1$
#110
0$
#112
b1011 )
#115
1$
#120
0$
#122
b1100 )
#125
1$
#130
0$
#132
b1101 )
#135
1$
#140
0$
#142
b1110 )
#145
1$
#150
0$
#152
b1111 )
#155
1$
#160
0$
#162
b10000 )
#165
1$
#170
0$
1'
#172
b10001 )
#175
b1 5
1-
1$
#180
0$
#182
b10010 )
#185
1!
b10 5
1r
1+
b1 w
b1 !"
b1 4"
1$
#190
0$
#192
b10011 )
#195
0!
0+
b10 w
b10 !"
b10 4"
1n
b11 5
1$
#200
0$
#202
b10100 )
#205
b100 5
1*"
b11 w
b11 !"
b11 4"
1$
#210
0$
#212
b10101 )
#215
b100 w
b100 !"
b100 4"
b101 5
1$
#220
0$
#222
b10110 )
#225
b110 5
b101 w
b101 !"
b101 4"
1$
#230
0$
#232
b10111 )
#235
b110 w
b110 !"
b110 4"
b111 5
1$
#240
0$
#242
b11000 )
#245
b1000 5
b111 w
b111 !"
b111 4"
1$
#250
0$
#252
b11001 )
#255
b1000 w
b1000 !"
b1000 4"
b1001 5
1$
#260
0$
#262
b11010 )
#265
b1010 5
b1001 w
b1001 !"
b1001 4"
1$
#270
0$
#272
b11011 )
#275
b1010 w
b1010 !"
b1010 4"
b1011 5
1$
#280
0$
#282
b11100 )
#285
b1100 5
b1011 w
b1011 !"
b1011 4"
1$
#290
0$
#292
b11101 )
#295
b1100 w
b1100 !"
b1100 4"
b1101 5
1$
#300
0$
#302
b11110 )
#305
b1110 5
b1101 w
b1101 !"
b1101 4"
1$
#310
0$
#312
b11111 )
#315
b1110 w
b1110 !"
b1110 4"
b1111 5
1$
#320
0$
#322
b100000 )
#325
b10000 5
b1111 w
b1111 !"
b1111 4"
1$
#330
0$
#332
b100001 )
#335
b10000 w
b10000 !"
b10000 4"
b10001 5
1$
#340
0$
#342
b100010 )
#345
b10010 5
b10001 w
b10001 !"
b10001 4"
1$
#350
0$
#352
b100011 )
#355
b10010 w
b10010 !"
b10010 4"
b10011 5
1$
#360
0$
#362
b100100 )
#365
b10100 5
b10011 w
b10011 !"
b10011 4"
1$
#370
0$
#372
b100101 )
#375
b10100 w
b10100 !"
b10100 4"
b10101 5
1$
#380
0$
#382
b100110 )
#385
b10110 5
b10101 w
b10101 !"
b10101 4"
1$
#390
0$
#392
b100111 )
#395
b10110 w
b10110 !"
b10110 4"
b10111 5
1$
#400
0$
#402
b101000 )
#405
b11000 5
b10111 w
b10111 !"
b10111 4"
1$
#410
0$
#412
b101001 )
#415
b11000 w
b11000 !"
b11000 4"
b11001 5
1$
#420
0$
#422
b101010 )
#425
b11010 5
b11001 w
b11001 !"
b11001 4"
1$
#430
0$
#432
b101011 )
#435
b11010 w
b11010 !"
b11010 4"
b11011 5
1$
#440
0$
#442
b101100 )
#445
b11100 5
b11011 w
b11011 !"
b11011 4"
1$
#450
0$
#452
b101101 )
#455
b11100 w
b11100 !"
b11100 4"
b11101 5
1$
#460
0$
#462
b101110 )
#465
b11110 5
b11101 w
b11101 !"
b11101 4"
1$
#470
0$
#472
b101111 )
#475
b11110 w
b11110 !"
b11110 4"
b11111 5
1$
#480
0$
#482
b110000 )
#485
b100000 5
b11111 w
b11111 !"
b11111 4"
1$
#490
0$
#492
b110001 )
#495
b100000 w
b100000 !"
b100000 4"
b100001 5
1$
#500
0$
#502
b110010 )
#505
b100010 5
b100001 w
b100001 !"
b100001 4"
1$
#510
0$
#512
b110011 )
#515
b100010 w
b100010 !"
b100010 4"
b100011 5
1$
#520
0$
#522
b110100 )
#525
b100100 5
b100011 w
b100011 !"
b100011 4"
1$
#530
0$
#532
b110101 )
#535
b100100 w
b100100 !"
b100100 4"
b100101 5
1$
#540
0$
#542
b110110 )
#545
b100110 5
b100101 w
b100101 !"
b100101 4"
1$
#550
0$
#552
b110111 )
#555
b100110 w
b100110 !"
b100110 4"
b100111 5
1$
#560
0$
#562
b111000 )
#565
b101000 5
b100111 w
b100111 !"
b100111 4"
1$
#570
0$
#572
b111001 )
#575
b101000 w
b101000 !"
b101000 4"
b101001 5
1$
#580
0$
#582
b111010 )
#585
b101010 5
b101001 w
b101001 !"
b101001 4"
1$
#590
0$
#592
b111011 )
#595
b101010 w
b101010 !"
b101010 4"
b101011 5
1$
#600
0$
#602
b111100 )
#605
b101100 5
b101011 w
b101011 !"
b101011 4"
1$
#610
0$
#612
b111101 )
#615
b101100 w
b101100 !"
b101100 4"
b101101 5
1$
#620
0$
#622
b111110 )
#625
b101110 5
b101101 w
b101101 !"
b101101 4"
1$
#630
0$
#632
b111111 )
#635
b101110 w
b101110 !"
b101110 4"
b101111 5
1$
#640
0$
#642
b1000000 )
#645
b110000 5
b101111 w
b101111 !"
b101111 4"
1$
#650
0$
#652
b1000001 )
#655
b110000 w
b110000 !"
b110000 4"
b110001 5
1$
#660
0$
#662
b1000010 )
#665
b110010 5
b110001 w
b110001 !"
b110001 4"
1$
#670
0$
#672
b1000011 )
#675
b110010 w
b110010 !"
b110010 4"
b110011 5
1$
#680
0$
#682
b1000100 )
#685
b110100 5
b110011 w
b110011 !"
b110011 4"
1$
#690
0$
#692
b1000101 )
#695
b110100 w
b110100 !"
b110100 4"
b110101 5
1$
#700
0$
#702
b1000110 )
#705
b110110 5
b110101 w
b110101 !"
b110101 4"
1$
#710
0$
#712
b1000111 )
#715
b110110 w
b110110 !"
b110110 4"
b110111 5
1$
#720
0$
#722
b1001000 )
#725
b111000 5
b110111 w
b110111 !"
b110111 4"
1$
#730
0$
#732
b1001001 )
#735
b111000 w
b111000 !"
b111000 4"
b111001 5
1$
#740
0$
#742
b1001010 )
#745
b111010 5
b111001 w
b111001 !"
b111001 4"
1$
#750
0$
#752
b1001011 )
#755
b111010 w
b111010 !"
b111010 4"
b111011 5
1$
#760
0$
#762
b1001100 )
#765
b111100 5
b111011 w
b111011 !"
b111011 4"
1$
#770
0$
#772
b1001101 )
#775
b111100 w
b111100 !"
b111100 4"
b111101 5
1$
#780
0$
#782
b1001110 )
#785
b111110 5
b111101 w
b111101 !"
b111101 4"
1$
#790
0$
#792
b1001111 )
#795
b111110 w
b111110 !"
b111110 4"
b111111 5
1$
#800
0$
#802
b1010000 )
#805
b1000000 5
b111111 w
b111111 !"
b111111 4"
1$
#810
0$
#812
b1010001 )
#815
b1000000 w
b1000000 !"
b1000000 4"
b1000001 5
1$
#820
0$
#822
b1010010 )
#825
b1000010 5
b1000001 w
b1000001 !"
b1000001 4"
1$
#830
0$
#832
b1010011 )
#835
b1000010 w
b1000010 !"
b1000010 4"
b1000011 5
1$
#840
0$
#842
b1010100 )
#845
b1000100 5
b1000011 w
b1000011 !"
b1000011 4"
1$
#850
0$
#852
b1010101 )
#855
b1000100 w
b1000100 !"
b1000100 4"
b1000101 5
1$
#860
0$
#862
b1010110 )
#865
b1000110 5
b1000101 w
b1000101 !"
b1000101 4"
1$
#870
0$
#872
b1010111 )
#875
b1000110 w
b1000110 !"
b1000110 4"
b1000111 5
1$
#880
0$
#882
b1011000 )
#885
b1001000 5
b1000111 w
b1000111 !"
b1000111 4"
1$
#890
0$
#892
b1011001 )
#895
b1001000 w
b1001000 !"
b1001000 4"
b1001001 5
1$
#900
0$
#902
b1011010 )
#905
b1001010 5
b1001001 w
b1001001 !"
b1001001 4"
1$
#910
0$
#912
b1011011 )
#915
b1001010 w
b1001010 !"
b1001010 4"
b1001011 5
1$
#920
0$
#922
b1011100 )
#925
b1001100 5
b1001011 w
b1001011 !"
b1001011 4"
1$
#930
0$
#932
b1011101 )
#935
b1001100 w
b1001100 !"
b1001100 4"
b1001101 5
1$
#940
0$
#942
b1011110 )
#945
b1001110 5
b1001101 w
b1001101 !"
b1001101 4"
1$
#950
0$
#952
b1011111 )
#955
b1001110 w
b1001110 !"
b1001110 4"
b1001111 5
1$
#960
0$
#962
b1100000 )
#965
b1010000 5
b1001111 w
b1001111 !"
b1001111 4"
1$
#970
0$
#972
b1100001 )
#975
b1010000 w
b1010000 !"
b1010000 4"
b1010001 5
1$
#980
0$
#982
b1100010 )
#985
b1010010 5
b1010001 w
b1010001 !"
b1010001 4"
1$
#990
0$
#992
b1100011 )
#995
b1010010 w
b1010010 !"
b1010010 4"
b1010011 5
1$
#1000
0$
#1002
b1100100 )
#1005
b1010100 5
b1010011 w
b1010011 !"
b1010011 4"
1$
#1010
0$
#1012
b1100101 )
#1015
b1010100 w
b1010100 !"
b1010100 4"
b1010101 5
1$
#1020
0$
#1022
b1100110 )
#1025
b1010110 5
b1010101 w
b1010101 !"
b1010101 4"
1$
#1030
0$
#1032
b1100111 )
#1035
b1010110 w
b1010110 !"
b1010110 4"
b1010111 5
1$
#1040
0$
#1042
b1101000 )
#1045
b1011000 5
b1010111 w
b1010111 !"
b1010111 4"
1$
#1050
0$
#1052
b1101001 )
#1055
b1011000 w
b1011000 !"
b1011000 4"
b1011001 5
1$
#1060
0$
#1062
b1101010 )
#1065
b1011010 5
b1011001 w
b1011001 !"
b1011001 4"
1$
#1070
0$
#1072
b1101011 )
#1075
b1011010 w
b1011010 !"
b1011010 4"
b1011011 5
1$
#1080
0$
#1082
b1101100 )
#1085
b1011100 5
b1011011 w
b1011011 !"
b1011011 4"
1$
#1090
0$
#1092
b1101101 )
#1095
b1011100 w
b1011100 !"
b1011100 4"
b1011101 5
1$
#1100
0$
#1102
b1101110 )
#1105
b1011110 5
b1011101 w
b1011101 !"
b1011101 4"
1$
#1110
0$
#1112
b1101111 )
#1115
b1011110 w
b1011110 !"
b1011110 4"
b1011111 5
1$
#1120
0$
#1122
b1110000 )
#1125
b1100000 5
b1011111 w
b1011111 !"
b1011111 4"
1$
#1130
0$
#1132
b1110001 )
#1135
b1100000 w
b1100000 !"
b1100000 4"
1v
b1100001 5
1$
#1140
0$
#1142
b1110010 )
#1145
b1100010 5
0v
b1 5"
b1100001 w
b1100001 !"
b1100001 4"
1%"
1$
#1150
0$
#1152
b1110011 )
#1155
1,"
1k
1&"
0%"
b1100010 w
b1100010 !"
b1100010 4"
1t
1o
b1100011 5
1$
#1160
0$
#1162
b1110100 )
#1165
b1100100 5
1s
b1100011 w
b1100011 !"
b1100011 4"
1'"
0&"
b10 -"
b10 /"
b10 2"
1+"
1$
#1170
0$
#1172
b1110101 )
#1175
b100 -"
b100 /"
b100 2"
b1100 z
b1100 ."
b1100 0"
b1100 6"
1l
0'"
b1100100 w
b1100100 !"
b1100100 4"
b1000000000000001 1
b1000000000000001 y
b1000000000000001 ""
1#"
b1100101 5
1$
#1180
0$
#1182
b1110110 )
#1185
b1000000000000001 #
b1000000000000001 3
b1100110 5
b0 1
b0 y
b0 ""
b1100101 w
b1100101 !"
b1100101 4"
b1010000000000011 j
b1010000000000011 p
b1010000000000011 {
b1010000000000011 <"
b1010000000000011 i
b1010000000000011 q
b1010000000000011 |
b1010000000000011 ;"
1m
b1110 z
b1110 ."
b1110 0"
b1110 6"
b110 -"
b110 /"
b110 2"
1$
#1190
0$
#1192
b1110111 )
#1195
b1000 -"
b1000 /"
b1000 2"
b1111 z
b1111 ."
b1111 0"
b1111 6"
b1110000000000001 i
b1110000000000001 q
b1110000000000001 |
b1110000000000001 ;"
b1100110 w
b1100110 !"
b1100110 4"
b1010000000000011 /
b1010000000000011 x
b1010000000000011 )"
b1010000000000011 1
b1010000000000011 y
b1010000000000011 ""
b1100111 5
b0 #
b0 3
1$
#1200
0$
#1202
b1111000 )
#1205
b1010000000000011 "
b1010000000000011 4
b1010000000000011 #
b1010000000000011 3
b1101000 5
b1110000000000001 1
b1110000000000001 y
b1110000000000001 ""
b1100111 w
b1100111 !"
b1100111 4"
b1110000000000001 j
b1110000000000001 p
b1110000000000001 {
b1110000000000001 <"
b101 z
b101 ."
b101 0"
b101 6"
b1010 -"
b1010 /"
b1010 2"
1$
#1210
0$
#1212
b1111001 )
#1215
b1100 -"
b1100 /"
b1100 2"
b1100 z
b1100 ."
b1100 0"
b1100 6"
b101111111111101 i
b101111111111101 q
b101111111111101 |
b101111111111101 ;"
b1101000 w
b1101000 !"
b1101000 4"
b1110000000000001 /
b1110000000000001 x
b1110000000000001 )"
b1101001 5
b1110000000000001 #
b1110000000000001 3
1$
#1220
0$
#1222
b1111010 )
#1225
b1110000000000001 "
b1110000000000001 4
b1101010 5
b101111111111101 1
b101111111111101 y
b101111111111101 ""
b1101001 w
b1101001 !"
b1101001 4"
b1010000000000011 j
b1010000000000011 p
b1010000000000011 {
b1010000000000011 <"
b1010000000000011 i
b1010000000000011 q
b1010000000000011 |
b1010000000000011 ;"
b111 z
b111 ."
b111 0"
b111 6"
b1110 -"
b1110 /"
b1110 2"
1$
#1230
0$
#1232
b1111011 )
#1235
b10000 -"
b10000 /"
b10000 2"
b11 z
b11 ."
b11 0"
b11 6"
b1110000000000001 j
b1110000000000001 p
b1110000000000001 {
b1110000000000001 <"
b1111111111111 i
b1111111111111 q
b1111111111111 |
b1111111111111 ;"
b1101010 w
b1101010 !"
b1101010 4"
b1010000000000011 /
b1010000000000011 x
b1010000000000011 )"
b1010000000000011 1
b1010000000000011 y
b1010000000000011 ""
b1101011 5
b101111111111101 #
b101111111111101 3
1$
#1240
0$
#1242
b1111100 )
#1245
b1010000000000011 "
b1010000000000011 4
b1010000000000011 #
b1010000000000011 3
b1101100 5
b1110000000000001 /
b1110000000000001 x
b1110000000000001 )"
b1111111111111 1
b1111111111111 y
b1111111111111 ""
b1101011 w
b1101011 !"
b1101011 4"
b1111111111111 j
b1111111111111 p
b1111111111111 {
b1111111111111 <"
b0 z
b0 ."
b0 0"
b0 6"
b10010 -"
b10010 /"
b10010 2"
1$
#1250
0$
#1252
b1111101 )
#1255
b10100 -"
b10100 /"
b10100 2"
b1010 z
b1010 ."
b1010 0"
b1010 6"
b101111111111101 j
b101111111111101 p
b101111111111101 {
b101111111111101 <"
b101111111111101 i
b101111111111101 q
b101111111111101 |
b101111111111101 ;"
b1101100 w
b1101100 !"
b1101100 4"
b1111111111111 /
b1111111111111 x
b1111111111111 )"
b1101101 5
b1110000000000001 "
b1110000000000001 4
b1111111111111 #
b1111111111111 3
1$
#1260
0$
#1262
b1111110 )
#1265
b1111111111111 "
b1111111111111 4
b1101110 5
b101111111111101 /
b101111111111101 x
b101111111111101 )"
b101111111111101 1
b101111111111101 y
b101111111111101 ""
b1101101 w
b1101101 !"
b1101101 4"
b1110000000000001 i
b1110000000000001 q
b1110000000000001 |
b1110000000000001 ;"
b1011 z
b1011 ."
b1011 0"
b1011 6"
b10110 -"
b10110 /"
b10110 2"
1$
#1270
0$
#1272
b1111111 )
#1275
b11000 -"
b11000 /"
b11000 2"
b1110 z
b1110 ."
b1110 0"
b1110 6"
b1111111111111 j
b1111111111111 p
b1111111111111 {
b1111111111111 <"
b1101110 w
b1101110 !"
b1101110 4"
b1110000000000001 1
b1110000000000001 y
b1110000000000001 ""
b1101111 5
b101111111111101 "
b101111111111101 4
b101111111111101 #
b101111111111101 3
1$
#1280
0$
#1282
b10000000 )
#1285
b1110000000000001 #
b1110000000000001 3
b1110000 5
b1111111111111 /
b1111111111111 x
b1111111111111 )"
b1101111 w
b1101111 !"
b1101111 4"
b1010000000000011 j
b1010000000000011 p
b1010000000000011 {
b1010000000000011 <"
b110 z
b110 ."
b110 0"
b110 6"
b11010 -"
b11010 /"
b11010 2"
1$
#1290
0$
#1292
b10000001 )
#1295
b11100 -"
b11100 /"
b11100 2"
b1111 z
b1111 ."
b1111 0"
b1111 6"
b1111111111111 i
b1111111111111 q
b1111111111111 |
b1111111111111 ;"
b1110000 w
b1110000 !"
b1110000 4"
b1010000000000011 /
b1010000000000011 x
b1010000000000011 )"
b1110001 5
b1111111111111 "
b1111111111111 4
1$
#1300
0$
#1302
b10000010 )
#1305
b1010000000000011 "
b1010000000000011 4
b1110010 5
b1111111111111 1
b1111111111111 y
b1111111111111 ""
b1110001 w
b1110001 !"
b1110001 4"
b1110000000000001 j
b1110000000000001 p
b1110000000000001 {
b1110000000000001 <"
b1110000000000001 i
b1110000000000001 q
b1110000000000001 |
b1110000000000001 ;"
b1100 z
b1100 ."
b1100 0"
b1100 6"
b11110 -"
b11110 /"
b11110 2"
1$
#1310
0$
#1312
b10000011 )
#1315
b100000 -"
b100000 /"
b100000 2"
b101 z
b101 ."
b101 0"
b101 6"
b1010000000000011 j
b1010000000000011 p
b1010000000000011 {
b1010000000000011 <"
b1010000000000011 i
b1010000000000011 q
b1010000000000011 |
b1010000000000011 ;"
b1110010 w
b1110010 !"
b1110010 4"
b1110000000000001 /
b1110000000000001 x
b1110000000000001 )"
b1110000000000001 1
b1110000000000001 y
b1110000000000001 ""
b1110011 5
b1111111111111 #
b1111111111111 3
1$
#1320
0$
#1322
b10000100 )
#1325
b1110000000000001 "
b1110000000000001 4
b1110000000000001 #
b1110000000000001 3
b1110100 5
b1010000000000011 /
b1010000000000011 x
b1010000000000011 )"
b1010000000000011 1
b1010000000000011 y
b1010000000000011 ""
b1110011 w
b1110011 !"
b1110011 4"
b1110000000000001 j
b1110000000000001 p
b1110000000000001 {
b1110000000000001 <"
b101111111111101 i
b101111111111101 q
b101111111111101 |
b101111111111101 ;"
b100 z
b100 ."
b100 0"
b100 6"
b100010 -"
b100010 /"
b100010 2"
1$
#1330
0$
#1332
b10000101 )
#1335
b100100 -"
b100100 /"
b100100 2"
b1111 z
b1111 ."
b1111 0"
b1111 6"
b1010000000000011 j
b1010000000000011 p
b1010000000000011 {
b1010000000000011 <"
b1110100 w
b1110100 !"
b1110100 4"
b1110000000000001 /
b1110000000000001 x
b1110000000000001 )"
b101111111111101 1
b101111111111101 y
b101111111111101 ""
b1110101 5
b1010000000000011 "
b1010000000000011 4
b1010000000000011 #
b1010000000000011 3
1$
#1340
0$
#1342
b10000110 )
#1345
b1110000000000001 "
b1110000000000001 4
b101111111111101 #
b101111111111101 3
b1110110 5
b1010000000000011 /
b1010000000000011 x
b1010000000000011 )"
b1110101 w
b1110101 !"
b1110101 4"
b1110000000000001 j
b1110000000000001 p
b1110000000000001 {
b1110000000000001 <"
b1110000000000001 i
b1110000000000001 q
b1110000000000001 |
b1110000000000001 ;"
b100110 -"
b100110 /"
b100110 2"
1$
#1350
0$
#1352
b10000111 )
#1355
b101000 -"
b101000 /"
b101000 2"
b111 z
b111 ."
b111 0"
b111 6"
b1110110 w
b1110110 !"
b1110110 4"
b1110000000000001 /
b1110000000000001 x
b1110000000000001 )"
b1110000000000001 1
b1110000000000001 y
b1110000000000001 ""
b1110111 5
b1010000000000011 "
b1010000000000011 4
1$
#1360
0$
#1362
b10001000 )
#1365
b1110000000000001 "
b1110000000000001 4
b1110000000000001 #
b1110000000000001 3
b1111000 5
b1110111 w
b1110111 !"
b1110111 4"
b1111111111111 i
b1111111111111 q
b1111111111111 |
b1111111111111 ;"
b101 z
b101 ."
b101 0"
b101 6"
b101010 -"
b101010 /"
b101010 2"
1$
#1370
0$
#1372
b10001001 )
