toptop.vcd
$date
	Mon Dec 24 12:58:07 2018
$end
$version
	Icarus Verilog
$end
$timescale
	1s
$end
$scope module toptop_tb $end
$var wire 1 ! sop $end
$var wire 16 " q_OFDM [15:0] $end
$var wire 16 # out_q [15:0] $end
$var wire 16 $ out_i [15:0] $end
$var wire 16 % i_OFDM [15:0] $end
$var reg 1 & clock $end
$var reg 1 ' enable $end
$var reg 1 ( mod_switch $end
$var reg 1 ) ready_in $end
$var reg 1 * reset $end
$var integer 32 + i [31:0] $end
$var integer 32 , outfile [31:0] $end
$var integer 32 - outfile1 [31:0] $end
$scope module top_inst $end
$var wire 1 & clock $end
$var wire 1 ' enable $end
$var wire 1 ( mod_switch $end
$var wire 16 . out_i [15:0] $end
$var wire 16 / out_q [15:0] $end
$var wire 1 ) ready_in $end
$var wire 1 0 ready_in1 $end
$var wire 1 * reset $end
$var wire 1 1 valid_rom $end
$var wire 1 2 valid_qam $end
$var wire 1 3 valid_pilot $end
$var wire 1 ! sop $end
$var wire 1 4 sign_pilot $end
$var wire 16 5 s2 [15:0] $end
$var wire 16 6 s1 [15:0] $end
$var wire 1 7 ready_out_pilots $end
$var wire 1 8 ready_in4 $end
$var wire 1 9 ready_in3 $end
$var wire 1 : ready_in2 $end
$var wire 1 ; index_pilot $end
$var wire 11 < count_index [10:0] $end
$var wire 16 = Q_OFDM [15:0] $end
$var wire 16 > I_OFDM [15:0] $end
$var wire 4 ? Bit_wire [3:0] $end
$scope module OFDM_preambule1 $end
$var wire 1 & clk $end
$var wire 1 ' en $end
$var wire 1 ) ready_in $end
$var wire 1 * res $end
$var wire 1 2 valid_qam $end
$var wire 1 3 valid_pilot $end
$var wire 1 4 sign_pilot $end
$var wire 16 @ q [15:0] $end
$var wire 1 ; index_pilot $end
$var wire 16 A i [15:0] $end
$var reg 11 B Left_index [10:0] $end
$var reg 11 C Right_index [10:0] $end
$var reg 11 D count [10:0] $end
$var reg 16 E i_OFDM [15:0] $end
$var reg 1 F indexCarrier $end
$var reg 11 G mid_ofdm [10:0] $end
$var reg 1 H pilot1 $end
$var reg 1 I pilot2 $end
$var reg 1 J pilot3 $end
$var reg 16 K pilot_value [15:0] $end
$var reg 16 L q_OFDM [15:0] $end
$var reg 1 8 ready_out_QAM $end
$var reg 1 9 ready_out_ROM $end
$var reg 1 7 ready_out_pilots $end
$var reg 1 ! sop $end
$var reg 1 M valid_OFDM $end
$upscope $end
$scope module build_rom1 $end
$var wire 1 & clock $end
$var wire 1 ' enable $end
$var wire 1 ( mod_switch $end
$var wire 1 0 ready_in $end
$var wire 1 * reset $end
$var wire 1 ! sop $end
$var wire 1 1 valid_rom $end
$var wire 1 N valid_count $end
$var wire 1 O ready $end
$var wire 11 P addr1 [10:0] $end
$var wire 4 Q Bit_ROM [3:0] $end
$scope module ROM1 $end
$var wire 1 & clk $end
$var wire 1 ' en $end
$var wire 1 ( mod_switch $end
$var wire 1 0 ready_in $end
$var wire 1 O ready_out $end
$var wire 1 * reset $end
$var wire 1 N valid_count $end
$var wire 11 R addr [10:0] $end
$var reg 4 S idata [3:0] $end
$var reg 1 T switch $end
$var reg 1 1 valid_rom $end
$upscope $end
$scope module counter_rom_preambule1 $end
$var wire 1 & clk $end
$var wire 1 ' en $end
$var wire 1 ( mod_switch $end
$var wire 1 O ready_in $end
$var wire 1 * reset $end
$var wire 1 ! sop $end
$var reg 11 U addr [10:0] $end
$var reg 1 V switch $end
$var reg 1 N valid_count $end
$upscope $end
$upscope $end
$scope module pilots1 $end
$var wire 1 & clk $end
$var wire 11 W count_index [10:0] $end
$var wire 1 ' en $end
$var wire 1 7 ready_in $end
$var wire 1 * res $end
$var reg 7 X count_value [6:0] $end
$var reg 1 ; index_pilot $end
$var reg 1 4 sign_pilot $end
$var reg 1 3 valid_pilot $end
$upscope $end
$scope module qam1 $end
$var wire 1 & clk $end
$var wire 1 ' en $end
$var wire 4 Y idata [3:0] $end
$var wire 1 8 ready_in $end
$var wire 1 * res $end
$var wire 1 1 valid_rom $end
$var reg 1 Z error $end
$var reg 15 [ grid [14:0] $end
$var reg 15 \ grid_value1 [14:0] $end
$var reg 15 ] grid_value2 [14:0] $end
$var reg 16 ^ i [15:0] $end
$var reg 16 _ q [15:0] $end
$var reg 1 : ready_out $end
$var reg 1 2 valid_qam $end
$upscope $end
$upscope $end
$upscope $end
$enddefinitions $end
#0
$dumpvars
b0 _
b0 ^
b101111111111101 ]
b1111111111111 \
b1111111111111 [
0Z
b0 Y
b0 X
b0 W
0V
b0 U
0T
b0 S
b0 R
b0 Q
b0 P
0O
0N
0M
b0 L
b111111111111111 K
xJ
xI
xH
b111111111 G
0F
b0 E
b0 D
b1110011011 C
b1100011 B
b0 A
b0 @
b0 ?
b0 >
b0 =
b0 <
x;
x:
09
08
x7
b0 6
b0 5
x4
x3
x2
01
00
b0 /
b0 .
b100 -
b10 ,
b0 +
0*
0)
1(
0'
0&
b0 %
b0 $
b0 #
b0 "
0!
$end
#5
02
1:
03
1&
#10
0&
#12
b1 +
#15
1&
#20
0&
#22
b10 +
#25
1&
#30
0&
#32
b11 +
#35
1&
#40
0&
#42
b100 +
#45
1&
#50
0&
1'
#52
b101 +
#55
1&
#60
0:
0I
0H
07
04
0;
1V
1T
0&
1*
#62
b110 +
#65
1&
#70
0&
0*
#72
b111 +
#75
1:
0J
1&
#80
0&
#82
b1000 +
#85
1&
#90
0&
#92
b1001 +
#95
1&
#100
0&
#102
b1010 +
#105
1&
#110
0&
#112
b1011 +
#115
1&
#120
0&
#122
b1100 +
#125
1&
#130
0&
#132
b1101 +
#135
1&
#140
0&
#142
b1110 +
#145
1&
#150
0&
#152
b1111 +
#155
1&
#160
0&
#162
b10000 +
#165
1&
#170
0&
1)
#172
b10001 +
#175
1!
b1 <
b1 D
b1 W
17
1&
#180
0&
#182
b10010 +
#185
13
0!
b10 <
b10 D
b10 W
1&
#190
0&
#192
b10011 +
#195
b11 <
b11 D
b11 W
1M
1&
#200
0&
#202
b10100 +
#205
b100 <
b100 D
b100 W
1&
#210
0&
#212
b10101 +
#215
b101 <
b101 D
b101 W
1&
#220
0&
#222
b10110 +
#225
b110 <
b110 D
b110 W
1&
#230
0&
#232
b10111 +
#235
b111 <
b111 D
b111 W
1&
#240
0&
#242
b11000 +
#245
b1000 <
b1000 D
b1000 W
1&
#250
0&
#252
b11001 +
#255
b1001 <
b1001 D
b1001 W
1&
#260
0&
#262
b11010 +
#265
b1010 <
b1010 D
b1010 W
1&
#270
0&
#272
b11011 +
#275
b1011 <
b1011 D
b1011 W
1&
#280
0&
#282
b11100 +
#285
b1100 <
b1100 D
b1100 W
1&
#290
0&
#292
b11101 +
#295
b1101 <
b1101 D
b1101 W
1&
#300
0&
#302
b11110 +
#305
b1110 <
b1110 D
b1110 W
1&
#310
0&
#312
b11111 +
#315
b1111 <
b1111 D
b1111 W
1&
#320
0&
#322
b100000 +
#325
b10000 <
b10000 D
b10000 W
1&
#330
0&
#332
b100001 +
#335
b10001 <
b10001 D
b10001 W
1&
#340
0&
#342
b100010 +
#345
b10010 <
b10010 D
b10010 W
1&
#350
0&
#352
b100011 +
#355
b10011 <
b10011 D
b10011 W
1&
#360
0&
#362
b100100 +
#365
b10100 <
b10100 D
b10100 W
1&
#370
0&
#372
b100101 +
#375
b10101 <
b10101 D
b10101 W
1&
#380
0&
#382
b100110 +
#385
b10110 <
b10110 D
b10110 W
1&
#390
0&
#392
b100111 +
#395
b10111 <
b10111 D
b10111 W
1&
#400
0&
#402
b101000 +
#405
b11000 <
b11000 D
b11000 W
1&
#410
0&
#412
b101001 +
#415
b11001 <
b11001 D
b11001 W
1&
#420
0&
#422
b101010 +
#425
b11010 <
b11010 D
b11010 W
1&
#430
0&
#432
b101011 +
#435
b11011 <
b11011 D
b11011 W
1&
#440
0&
#442
b101100 +
#445
b11100 <
b11100 D
b11100 W
1&
#450
0&
#452
b101101 +
#455
b11101 <
b11101 D
b11101 W
1&
#460
0&
#462
b101110 +
#465
b11110 <
b11110 D
b11110 W
1&
#470
0&
#472
b101111 +
#475
b11111 <
b11111 D
b11111 W
1&
#480
0&
#482
b110000 +
#485
b100000 <
b100000 D
b100000 W
1&
#490
0&
#492
b110001 +
#495
b100001 <
b100001 D
b100001 W
1&
#500
0&
#502
b110010 +
#505
b100010 <
b100010 D
b100010 W
1&
#510
0&
#512
b110011 +
#515
b100011 <
b100011 D
b100011 W
1&
#520
0&
#522
b110100 +
#525
b100100 <
b100100 D
b100100 W
1&
#530
0&
#532
b110101 +
#535
b100101 <
b100101 D
b100101 W
1&
#540
0&
#542
b110110 +
#545
b100110 <
b100110 D
b100110 W
1&
#550
0&
#552
b110111 +
#555
b100111 <
b100111 D
b100111 W
1&
#560
0&
#562
b111000 +
#565
b101000 <
b101000 D
b101000 W
1&
#570
0&
#572
b111001 +
#575
b101001 <
b101001 D
b101001 W
1&
#580
0&
#582
b111010 +
#585
b101010 <
b101010 D
b101010 W
1&
#590
0&
#592
b111011 +
#595
b101011 <
b101011 D
b101011 W
1&
#600
0&
#602
b111100 +
#605
b101100 <
b101100 D
b101100 W
1&
#610
0&
#612
b111101 +
#615
b101101 <
b101101 D
b101101 W
1&
#620
0&
#622
b111110 +
#625
b101110 <
b101110 D
b101110 W
1&
#630
0&
#632
b111111 +
#635
b101111 <
b101111 D
b101111 W
1&
#640
0&
#642
b1000000 +
#645
b110000 <
b110000 D
b110000 W
1&
#650
0&
#652
b1000001 +
#655
b110001 <
b110001 D
b110001 W
1&
#660
0&
#662
b1000010 +
#665
b110010 <
b110010 D
b110010 W
1&
#670
0&
#672
b1000011 +
#675
b110011 <
b110011 D
b110011 W
1&
#680
0&
#682
b1000100 +
#685
b110100 <
b110100 D
b110100 W
1&
#690
0&
#692
b1000101 +
#695
b110101 <
b110101 D
b110101 W
1&
#700
0&
#702
b1000110 +
#705
b110110 <
b110110 D
b110110 W
1&
#710
0&
#712
b1000111 +
#715
b110111 <
b110111 D
b110111 W
1&
#720
0&
#722
b1001000 +
#725
b111000 <
b111000 D
b111000 W
1&
#730
0&
#732
b1001001 +
#735
b111001 <
b111001 D
b111001 W
1&
#740
0&
#742
b1001010 +
#745
b111010 <
b111010 D
b111010 W
1&
#750
0&
#752
b1001011 +
#755
b111011 <
b111011 D
b111011 W
1&
#760
0&
#762
b1001100 +
#765
b111100 <
b111100 D
b111100 W
1&
#770
0&
#772
b1001101 +
#775
b111101 <
b111101 D
b111101 W
1&
#780
0&
#782
b1001110 +
#785
b111110 <
b111110 D
b111110 W
1&
#790
0&
#792
b1001111 +
#795
b111111 <
b111111 D
b111111 W
1&
#800
0&
#802
b1010000 +
#805
b1000000 <
b1000000 D
b1000000 W
1&
#810
0&
#812
b1010001 +
#815
b1000001 <
b1000001 D
b1000001 W
1&
#820
0&
#822
b1010010 +
#825
b1000010 <
b1000010 D
b1000010 W
1&
#830
0&
#832
b1010011 +
#835
b1000011 <
b1000011 D
b1000011 W
1&
#840
0&
#842
b1010100 +
#845
b1000100 <
b1000100 D
b1000100 W
1&
#850
0&
#852
b1010101 +
#855
b1000101 <
b1000101 D
b1000101 W
1&
#860
0&
#862
b1010110 +
#865
b1000110 <
b1000110 D
b1000110 W
1&
#870
0&
#872
b1010111 +
#875
b1000111 <
b1000111 D
b1000111 W
1&
#880
0&
#882
b1011000 +
#885
b1001000 <
b1001000 D
b1001000 W
1&
#890
0&
#892
b1011001 +
#895
b1001001 <
b1001001 D
b1001001 W
1&
#900
0&
#902
b1011010 +
#905
b1001010 <
b1001010 D
b1001010 W
1&
#910
0&
#912
b1011011 +
#915
b1001011 <
b1001011 D
b1001011 W
1&
#920
0&
#922
b1011100 +
#925
b1001100 <
b1001100 D
b1001100 W
1&
#930
0&
#932
b1011101 +
#935
b1001101 <
b1001101 D
b1001101 W
1&
#940
0&
#942
b1011110 +
#945
b1001110 <
b1001110 D
b1001110 W
1&
#950
0&
#952
b1011111 +
#955
b1001111 <
b1001111 D
b1001111 W
1&
#960
0&
#962
b1100000 +
#965
b1010000 <
b1010000 D
b1010000 W
1&
#970
0&
#972
b1100001 +
#975
b1010001 <
b1010001 D
b1010001 W
1&
#980
0&
#982
b1100010 +
#985
b1010010 <
b1010010 D
b1010010 W
1&
#990
0&
#992
b1100011 +
#995
b1010011 <
b1010011 D
b1010011 W
1&
#1000
0&
#1002
b1100100 +
#1005
b1010100 <
b1010100 D
b1010100 W
1&
#1010
0&
#1012
b1100101 +
#1015
b1010101 <
b1010101 D
b1010101 W
1&
#1020
0&
#1022
b1100110 +
#1025
b1010110 <
b1010110 D
b1010110 W
1&
#1030
0&
#1032
b1100111 +
#1035
b1010111 <
b1010111 D
b1010111 W
1&
#1040
0&
#1042
b1101000 +
#1045
b1011000 <
b1011000 D
b1011000 W
1&
#1050
0&
#1052
b1101001 +
#1055
b1011001 <
b1011001 D
b1011001 W
1&
#1060
0&
#1062
b1101010 +
#1065
b1011010 <
b1011010 D
b1011010 W
1&
#1070
0&
#1072
b1101011 +
#1075
b1011011 <
b1011011 D
b1011011 W
1&
#1080
0&
#1082
b1101100 +
#1085
b1011100 <
b1011100 D
b1011100 W
1&
#1090
0&
#1092
b1101101 +
#1095
b1011101 <
b1011101 D
b1011101 W
1&
#1100
0&
#1102
b1101110 +
#1105
b1011110 <
b1011110 D
b1011110 W
1&
#1110
0&
#1112
b1101111 +
#1115
b1011111 <
b1011111 D
b1011111 W
1&
#1120
0&
#1122
b1110000 +
#1125
1;
b1100000 <
b1100000 D
b1100000 W
1&
#1130
0&
#1132
b1110001 +
#1135
1H
b1100001 <
b1100001 D
b1100001 W
b1 X
0;
1&
#1140
0&
#1142
b1110010 +
#1145
1O
10
14
19
b1100010 <
b1100010 D
b1100010 W
1I
0H
1&
#1150
1N
0&
#1152
b1110011 +
#1155
b10 P
b10 R
b10 U
b110 ?
b110 Q
b110 S
b110 Y
11
1J
0I
b1100011 <
b1100011 D
b1100011 W
18
1&
#1160
0&
#1162
b1110100 +
#1165
1F
b1000000000000001 %
b1000000000000001 >
b1000000000000001 E
b1100100 <
b1100100 D
b1100100 W
0J
b1010000000000011 #
b1010000000000011 /
b1010000000000011 5
b1010000000000011 @
b1010000000000011 _
b1111111111111 $
b1111111111111 .
b1111111111111 6
b1111111111111 A
b1111111111111 ^
12
b1100 ?
b1100 Q
b1100 S
b1100 Y
b100 P
b100 R
b100 U
1&
#1170
0&
#1172
b1110101 +
#1175
b110 P
b110 R
b110 U
b1110 ?
b1110 Q
b1110 S
b1110 Y
b1010000000000011 $
b1010000000000011 .
b1010000000000011 6
b1010000000000011 A
b1010000000000011 ^
b1100101 <
b1100101 D
b1100101 W
b1010000000000011 "
b1010000000000011 =
b1010000000000011 L
b1111111111111 %
b1111111111111 >
b1111111111111 E
1&
#1180
0&
#1182
b1110110 +
#1185
b1010000000000011 %
b1010000000000011 >
b1010000000000011 E
b1100110 <
b1100110 D
b1100110 W
b1110000000000001 $
b1110000000000001 .
b1110000000000001 6
b1110000000000001 A
b1110000000000001 ^
b1111 ?
b1111 Q
b1111 S
b1111 Y
b1000 P
b1000 R
b1000 U
1&
#1190
0&
#1192
b1110111 +
#1195
b1010 P
b1010 R
b1010 U
b101 ?
b101 Q
b101 S
b101 Y
b1110000000000001 #
b1110000000000001 /
b1110000000000001 5
b1110000000000001 @
b1110000000000001 _
b1100111 <
b1100111 D
b1100111 W
b1110000000000001 %
b1110000000000001 >
b1110000000000001 E
1&
#1200
0&
#1202
b1111000 +
#1205
b1110000000000001 "
b1110000000000001 =
b1110000000000001 L
b1101000 <
b1101000 D
b1101000 W
b101111111111101 $
b101111111111101 .
b101111111111101 6
b101111111111101 A
b101111111111101 ^
b1100 ?
b1100 Q
b1100 S
b1100 Y
b1100 P
b1100 R
b1100 U
1&
#1210
0&
#1212
b1111001 +
#1215
b1110 P
b1110 R
b1110 U
b111 ?
b111 Q
b111 S
b111 Y
b1010000000000011 #
b1010000000000011 /
b1010000000000011 5
b1010000000000011 @
b1010000000000011 _
b1010000000000011 $
b1010000000000011 .
b1010000000000011 6
b1010000000000011 A
b1010000000000011 ^
b1101001 <
b1101001 D
b1101001 W
b101111111111101 %
b101111111111101 >
b101111111111101 E
1&
#1220
0&
#1222
b1111010 +
#1225
b1010000000000011 "
b1010000000000011 =
b1010000000000011 L
b1010000000000011 %
b1010000000000011 >
b1010000000000011 E
b1101010 <
b1101010 D
b1101010 W
b1110000000000001 #
b1110000000000001 /
b1110000000000001 5
b1110000000000001 @
b1110000000000001 _
b1111111111111 $
b1111111111111 .
b1111111111111 6
b1111111111111 A
b1111111111111 ^
b11 ?
b11 Q
b11 S
b11 Y
b10000 P
b10000 R
b10000 U
1&
#1230
0&
#1232
b1111011 +
#1235
b10010 P
b10010 R
b10010 U
b0 ?
b0 Q
b0 S
b0 Y
b1111111111111 #
b1111111111111 /
b1111111111111 5
b1111111111111 @
b1111111111111 _
b1101011 <
b1101011 D
b1101011 W
b1110000000000001 "
b1110000000000001 =
b1110000000000001 L
b1111111111111 %
b1111111111111 >
b1111111111111 E
1&
#1240
0&
#1242
b1111100 +
#1245
b1111111111111 "
b1111111111111 =
b1111111111111 L
b1101100 <
b1101100 D
b1101100 W
b101111111111101 #
b101111111111101 /
b101111111111101 5
b101111111111101 @
b101111111111101 _
b101111111111101 $
b101111111111101 .
b101111111111101 6
b101111111111101 A
b101111111111101 ^
b1010 ?
b1010 Q
b1010 S
b1010 Y
b10100 P
b10100 R
b10100 U
1&
#1250
0&
#1252
b1111101 +
#1255
b10110 P
b10110 R
b10110 U
b1011 ?
b1011 Q
b1011 S
b1011 Y
b1110000000000001 $
b1110000000000001 .
b1110000000000001 6
b1110000000000001 A
b1110000000000001 ^
b1101101 <
b1101101 D
b1101101 W
b101111111111101 "
b101111111111101 =
b101111111111101 L
b101111111111101 %
b101111111111101 >
b101111111111101 E
1&
#1260
0&
#1262
b1111110 +
#1265
b1110000000000001 %
b1110000000000001 >
b1110000000000001 E
b1101110 <
b1101110 D
b1101110 W
b1111111111111 #
b1111111111111 /
b1111111111111 5
b1111111111111 @
b1111111111111 _
b1110 ?
b1110 Q
b1110 S
b1110 Y
b11000 P
b11000 R
b11000 U
1&
#1270
0&
#1272
b1111111 +
#1275
b11010 P
b11010 R
b11010 U
b110 ?
b110 Q
b110 S
b110 Y
b1010000000000011 #
b1010000000000011 /
b1010000000000011 5
b1010000000000011 @
b1010000000000011 _
b1101111 <
b1101111 D
b1101111 W
b1111111111111 "
b1111111111111 =
b1111111111111 L
1&
#1280
0&
#1282
b10000000 +
#1285
b1010000000000011 "
b1010000000000011 =
b1010000000000011 L
b1110000 <
b1110000 D
b1110000 W
b1111111111111 $
b1111111111111 .
b1111111111111 6
b1111111111111 A
b1111111111111 ^
b1111 ?
b1111 Q
b1111 S
b1111 Y
b11100 P
b11100 R
b11100 U
1&
#1290
0&
#1292
b10000001 +
#1295
b11110 P
b11110 R
b11110 U
b1100 ?
b1100 Q
b1100 S
b1100 Y
b1110000000000001 #
b1110000000000001 /
b1110000000000001 5
b1110000000000001 @
b1110000000000001 _
b1110000000000001 $
b1110000000000001 .
b1110000000000001 6
b1110000000000001 A
b1110000000000001 ^
b1110001 <
b1110001 D
b1110001 W
b1111111111111 %
b1111111111111 >
b1111111111111 E
1&
#1300
0&
#1302
b10000010 +
#1305
b1110000000000001 "
b1110000000000001 =
b1110000000000001 L
b1110000000000001 %
b1110000000000001 >
b1110000000000001 E
b1110010 <
b1110010 D
b1110010 W
b1010000000000011 #
b1010000000000011 /
b1010000000000011 5
b1010000000000011 @
b1010000000000011 _
b1010000000000011 $
b1010000000000011 .
b1010000000000011 6
b1010000000000011 A
b1010000000000011 ^
b101 ?
b101 Q
b101 S
b101 Y
b100000 P
b100000 R
b100000 U
1&
#1310
0&
#1312
b10000011 +
#1315
b100010 P
b100010 R
b100010 U
b100 ?
b100 Q
b100 S
b100 Y
b1110000000000001 #
b1110000000000001 /
b1110000000000001 5
b1110000000000001 @
b1110000000000001 _
b101111111111101 $
b101111111111101 .
b101111111111101 6
b101111111111101 A
b101111111111101 ^
b1110011 <
b1110011 D
b1110011 W
b1010000000000011 "
b1010000000000011 =
b1010000000000011 L
b1010000000000011 %
b1010000000000011 >
b1010000000000011 E
1&
#1320
0&
#1322
b10000100 +
#1325
b1110000000000001 "
b1110000000000001 =
b1110000000000001 L
b101111111111101 %
b101111111111101 >
b101111111111101 E
b1110100 <
b1110100 D
b1110100 W
b1010000000000011 #
b1010000000000011 /
b1010000000000011 5
b1010000000000011 @
b1010000000000011 _
b1111 ?
b1111 Q
b1111 S
b1111 Y
b100100 P
b100100 R
b100100 U
1&
#1330
0&
#1332
b10000101 +
#1335
b100110 P
b100110 R
b100110 U
b1110000000000001 #
b1110000000000001 /
b1110000000000001 5
b1110000000000001 @
b1110000000000001 _
b1110000000000001 $
b1110000000000001 .
b1110000000000001 6
b1110000000000001 A
b1110000000000001 ^
b1110101 <
b1110101 D
b1110101 W
b1010000000000011 "
b1010000000000011 =
b1010000000000011 L
1&
#1340
0&
#1342
b10000110 +
#1345
b1110000000000001 "
b1110000000000001 =
b1110000000000001 L
b1110000000000001 %
b1110000000000001 >
b1110000000000001 E
b1110110 <
b1110110 D
b1110110 W
b111 ?
b111 Q
b111 S
b111 Y
b101000 P
b101000 R
b101000 U
1&
#1350
0&
#1352
b10000111 +
#1355
b101010 P
b101010 R
b101010 U
b101 ?
b101 Q
b101 S
b101 Y
b1111111111111 $
b1111111111111 .
b1111111111111 6
b1111111111111 A
b1111111111111 ^
b1110111 <
b1110111 D
b1110111 W
1&
#1360
0&
#1362
b10001000 +
#1365
b1111111111111 %
b1111111111111 >
b1111111111111 E
b1111000 <
b1111000 D
b1111000 W
b101111111111101 $
b101111111111101 .
b101111111111101 6
b101111111111101 A
b101111111111101 ^
b11 ?
b11 Q
b11 S
b11 Y
b101100 P
b101100 R
b101100 U
1&
#1370
0&
#1372
b10001001 +
#1375
b101110 P
b101110 R
b101110 U
b1100 ?
b1100 Q
b1100 S
b1100 Y
b1111111111111 #
b1111111111111 /
b1111111111111 5
b1111111111111 @
b1111111111111 _
b1111111111111 $
b1111111111111 .
b1111111111111 6
b1111111111111 A
b1111111111111 ^
b1111001 <
b1111001 D
b1111001 W
b101111111111101 %
b101111111111101 >
b101111111111101 E
1&
#1380
0&
#1382
b10001010 +
#1385
b1111111111111 "
b1111111111111 =
b1111111111111 L
b1111111111111 %
b1111111111111 >
b1111111111111 E
b1111010 <
b1111010 D
b1111010 W
b1010000000000011 #
b1010000000000011 /
b1010000000000011 5
b1010000000000011 @
b1010000000000011 _
b1010000000000011 $
b1010000000000011 .
b1010000000000011 6
b1010000000000011 A
b1010000000000011 ^
b11 ?
b11 Q
b11 S
b11 Y
b110000 P
b110000 R
b110000 U
1&
#1390
0&
#1392
b10001011 +
#1395
b110010 P
b110010 R
b110010 U
b1101 ?
b1101 Q
b1101 S
b1101 Y
b1111111111111 #
b1111111111111 /
b1111111111111 5
b1111111111111 @
b1111111111111 _
b1111111111111 $
b1111111111111 .
b1111111111111 6
b1111111111111 A
b1111111111111 ^
b1111011 <
b1111011 D
b1111011 W
b1010000000000011 "
b1010000000000011 =
b1010000000000011 L
b1010000000000011 %
b1010000000000011 >
b1010000000000011 E
1&
#1400
0&
#1402
b10001100 +
#1405
b1111111111111 "
b1111111111111 =
b1111111111111 L
b1111111111111 %
b1111111111111 >
b1111111111111 E
b1111100 <
b1111100 D
b1111100 W
b1110000000000001 #
b1110000000000001 /
b1110000000000001 5
b1110000000000001 @
b1110000000000001 _
b1010000000000011 $
b1010000000000011 .
b1010000000000011 6
b1010000000000011 A
b1010000000000011 ^
b1000 ?
b1000 Q
b1000 S
b1000 Y
b110100 P
b110100 R
b110100 U
1&
#1410
0&
#1412
b10001101 +
#1415
b110110 P
b110110 R
b110110 U
b101 ?
b101 Q
b101 S
b101 Y
b101111111111101 #
b101111111111101 /
b101111111111101 5
b101111111111101 @
b101111111111101 _
b1111101 <
b1111101 D
b1111101 W
b1110000000000001 "
b1110000000000001 =
b1110000000000001 L
b1010000000000011 %
b1010000000000011 >
b1010000000000011 E
1&
#1420
0&
#1422
b10001110 +
#1425
b101111111111101 "
b101111111111101 =
b101111111111101 L
b1111110 <
b1111110 D
b1111110 W
b1110000000000001 #
b1110000000000001 /
b1110000000000001 5
b1110000000000001 @
b1110000000000001 _
b101111111111101 $
b101111111111101 .
b101111111111101 6
b101111111111101 A
b101111111111101 ^
b1011 ?
b1011 Q
b1011 S
b1011 Y
b111000 P
b111000 R
b111000 U
1&
#1430
0&
#1432
b10001111 +
#1435
b111010 P
b111010 R
b111010 U
b0 ?
b0 Q
b0 S
b0 Y
b1111111111111 #
b1111111111111 /
b1111111111111 5
b1111111111111 @
b1111111111111 _
b1110000000000001 $
b1110000000000001 .
b1110000000000001 6
b1110000000000001 A
b1110000000000001 ^
b1111111 <
b1111111 D
b1111111 W
b1110000000000001 "
b1110000000000001 =
b1110000000000001 L
b101111111111101 %
b101111111111101 >
b101111111111101 E
1&
#1440
0&
#1442
b10010000 +
#1445
b1111111111111 "
b1111111111111 =
b1111111111111 L
b1110000000000001 %
b1110000000000001 >
b1110000000000001 E
b10000000 <
b10000000 D
b10000000 W
b101111111111101 #
b101111111111101 /
b101111111111101 5
b101111111111101 @
b101111111111101 _
b101111111111101 $
b101111111111101 .
b101111111111101 6
b101111111111101 A
b101111111111101 ^
b101 ?
b101 Q
b101 S
b101 Y
b111100 P
b111100 R
b111100 U
1&
#1450
0&
#1452
b10010001 +
#1455
b111110 P
b111110 R
b111110 U
b1110 ?
b1110 Q
b1110 S
b1110 Y
b1110000000000001 #
b1110000000000001 /
b1110000000000001 5
b1110000000000001 @
b1110000000000001 _
b10000001 <
b10000001 D
b10000001 W
b101111111111101 "
b101111111111101 =
b101111111111101 L
b101111111111101 %
b101111111111101 >
b101111111111101 E
1&
#1460
0&
#1462
b10010010 +
#1465
b1110000000000001 "
b1110000000000001 =
b1110000000000001 L
b10000010 <
b10000010 D
b10000010 W
b1010000000000011 #
b1010000000000011 /
b1010000000000011 5
b1010000000000011 @
b1010000000000011 _
b1110000000000001 $
b1110000000000001 .
b1110000000000001 6
b1110000000000001 A
b1110000000000001 ^
b1000000 P
b1000000 R
b1000000 U
1&
#1470
0&
#1472
b10010011 +
#1475
b1000010 P
b1000010 R
b1000010 U
b1000 ?
b1000 Q
b1000 S
b1000 Y
b10000011 <
b10000011 D
b10000011 W
b1010000000000011 "
b1010000000000011 =
b1010000000000011 L
b1110000000000001 %
b1110000000000001 >
b1110000000000001 E
1&
#1480
0&
#1482
b10010100 +
#1485
b10000100 <
b10000100 D
b10000100 W
b101111111111101 #
b101111111111101 /
b101111111111101 5
b101111111111101 @
b101111111111101 _
b1010000000000011 $
b1010000000000011 .
b1010000000000011 6
b1010000000000011 A
b1010000000000011 ^
b100 ?
b100 Q
b100 S
b100 Y
b1000100 P
b1000100 R
b1000100 U
1&
#1490
0&
#1492
b10010101 +
#1495
b1000110 P
b1000110 R
b1000110 U
b1011 ?
b1011 Q
b1011 S
b1011 Y
b1010000000000011 #
b1010000000000011 /
b1010000000000011 5
b1010000000000011 @
b1010000000000011 _
b101111111111101 $
b101111111111101 .
b101111111111101 6
b101111111111101 A
b101111111111101 ^
b10000101 <
b10000101 D
b10000101 W
b101111111111101 "
b101111111111101 =
b101111111111101 L
b1010000000000011 %
b1010000000000011 >
b1010000000000011 E
1&
#1500
0&
#1502
b10010110 +
#1505
b1010000000000011 "
b1010000000000011 =
b1010000000000011 L
b101111111111101 %
b101111111111101 >
b101111111111101 E
b10000110 <
b10000110 D
b10000110 W
b1111111111111 #
b1111111111111 /
b1111111111111 5
b1111111111111 @
b1111111111111 _
b1110000000000001 $
b1110000000000001 .
b1110000000000001 6
b1110000000000001 A
b1110000000000001 ^
b10 ?
b10 Q
b10 S
b10 Y
b1001000 P
b1001000 R
b1001000 U
1&
#1510
0&
#1512
b10010111 +
#1515
b1001010 P
b1001010 R
b1001010 U
b1110 ?
b1110 Q
b1110 S
b1110 Y
b101111111111101 #
b101111111111101 /
b101111111111101 5
b101111111111101 @
b101111111111101 _
b1111111111111 $
b1111111111111 .
b1111111111111 6
b1111111111111 A
b1111111111111 ^
b10000111 <
b10000111 D
b10000111 W
b1111111111111 "
b1111111111111 =
b1111111111111 L
b1110000000000001 %
b1110000000000001 >
b1110000000000001 E
1&
#1520
0&
#1522
b10011000 +
#1525
b101111111111101 "
b101111111111101 =
b101111111111101 L
b1111111111111 %
b1111111111111 >
b1111111111111 E
b10001000 <
b10001000 D
b10001000 W
b1010000000000011 #
b1010000000000011 /
b1010000000000011 5
b1010000000000011 @
b1010000000000011 _
b1110000000000001 $
b1110000000000001 .
b1110000000000001 6
b1110000000000001 A
b1110000000000001 ^
b110 ?
b110 Q
b110 S
b110 Y
b1001100 P
b1001100 R
b1001100 U
1&
#1530
0&
#1532
b10011001 +
#1535
b1001110 P
b1001110 R
b1001110 U
b111 ?
b111 Q
b111 S
b111 Y
b1111111111111 $
b1111111111111 .
b1111111111111 6
b1111111111111 A
b1111111111111 ^
b10001001 <
b10001001 D
b10001001 W
b1010000000000011 "
b1010000000000011 =
b1010000000000011 L
b1110000000000001 %
b1110000000000001 >
b1110000000000001 E
1&
#1540
0&
#1542
b10011010 +
#1545
b1111111111111 %
b1111111111111 >
b1111111111111 E
b10001010 <
b10001010 D
b10001010 W
b1110000000000001 #
b1110000000000001 /
b1110000000000001 5
b1110000000000001 @
b1110000000000001 _
b1000 ?
b1000 Q
b1000 S
b1000 Y
b1010000 P
b1010000 R
b1010000 U
1&
#1550
0&
#1552
b10011011 +
